Test/test-results/loads/RVTEST_LW.vcd
$date
   Mon Jul 19 15:52:59 2021
$end
$version
  2020.2
$end
$timescale
  1ps
$end
$scope module riscvTests_tb $end
$var reg 1 $" Clk $end
$var reg 1 %" Reset_n $end
$var reg 32 &" IMEM_data [31:0] $end
$var reg 32 '" DMEM_rd_data [31:0] $end
$var wire 32 % IMEM_addr [31:0] $end
$var wire 32 & DMEM_addr [31:0] $end
$var wire 32 ' DMEM_wr_data [31:0] $end
$var wire 1 ( DMEM_wr_en $end
$var wire 1 ) DMEM_rst $end
$var wire 1 * Exception $end
$var parameter 32 (" TEST_TO_RUN [31:0] $end
$var parameter 32 )" MEMORY_DEPTH [31:0] $end
$scope module UUT $end
$var wire 1 ! Clk $end
$var wire 1 " Reset_n $end
$var wire 32 # IMEM_data [31:0] $end
$var wire 32 $ DMEM_rd_data [31:0] $end
$var wire 32 % IMEM_addr [31:0] $end
$var wire 32 & DMEM_addr [31:0] $end
$var wire 32 ' DMEM_wr_data [31:0] $end
$var wire 1 ( DMEM_wr_en $end
$var wire 1 ) DMEM_rst $end
$var wire 1 * Exception $end
$var wire 1 + IF_ID_Flush $end
$var wire 1 , EX_Flush $end
$var reg 1 - Stall $end
$var wire 2 . ForwardA [1:0] $end
$var wire 2 / ForwardB [1:0] $end
$var wire 32 0 IF_PC [31:0] $end
$var wire 32 1 IF_Instruction [31:0] $end
$var wire 32 2 ID_PC [31:0] $end
$var wire 2 3 ID_ALU_source_sel [1:0] $end
$var wire 4 4 ID_ALU_op [3:0] $end
$var wire 2 5 ID_Branch_op [1:0] $end
$var wire 1 6 ID_Branch_flag $end
$var wire 1 7 ID_Mem_wr_en $end
$var wire 1 8 ID_Mem_rd_en $end
$var wire 1 9 ID_RegFile_wr_en $end
$var wire 1 : ID_MemToReg $end
$var wire 1 ; ID_Jump $end
$var wire 3 < ID_Mem_op [2:0] $end
$var wire 32 = ID_PC_dest [31:0] $end
$var wire 32 > ID_Immediate_1 [31:0] $end
$var wire 32 ? ID_Immediate_2 [31:0] $end
$var wire 32 @ ID_Rs1_data [31:0] $end
$var wire 32 A ID_Rs2_data [31:0] $end
$var wire 5 B ID_Rd_addr [4:0] $end
$var wire 5 C ID_Rs1_addr [4:0] $end
$var wire 5 D ID_Rs2_addr [4:0] $end
$var wire 1 E ID_Exception $end
$var wire 1 F EX_Mem_wr_en $end
$var wire 1 G EX_Mem_rd_en $end
$var wire 3 H EX_Mem_op [2:0] $end
$var wire 1 I EX_MemToReg $end
$var wire 32 J EX_ALU_result [31:0] $end
$var wire 32 K EX_Rs2_data [31:0] $end
$var wire 1 L EX_RegFile_wr_en $end
$var wire 5 M EX_Rd_addr [4:0] $end
$var wire 32 N EX_PC_Branch_dest [31:0] $end
$var wire 1 O EX_PC_Branch $end
$var wire 1 P EX_Exception $end
$var wire 32 Q MEM_dout [31:0] $end
$var wire 1 R MEM_MemToReg $end
$var wire 32 S MEM_ALU_result [31:0] $end
$var wire 1 T MEM_RegFile_wr_en $end
$var wire 5 U MEM_Rd_addr [4:0] $end
$var wire 5 V WB_Rd_addr [4:0] $end
$var wire 32 W WB_Rd_data [31:0] $end
$var wire 1 X WB_Rd_wr_en $end
$var wire 1 Y WB_RegFile_wr_en $end
$scope module FWD_inst $end
$var reg 2 Z ForwardA [1:0] $end
$var reg 2 [ ForwardB [1:0] $end
$var wire 2 3 ID_ALU_source_sel [1:0] $end
$var wire 5 C ID_Rs1_addr [4:0] $end
$var wire 5 D ID_Rs2_addr [4:0] $end
$var wire 5 B ID_Rd_addr [4:0] $end
$var wire 5 M EX_Rd_addr [4:0] $end
$var wire 5 U MEM_Rd_addr [4:0] $end
$var wire 1 L EX_RegFile_wr_en $end
$var wire 1 T MEM_RegFile_wr_en $end
$var parameter 32 \ REG_DATA_WIDTH [31:0] $end
$var parameter 32 ] REGFILE_ADDR_WIDTH [31:0] $end
$upscope $end
$scope module HD_inst $end
$var wire 1 ! Clk $end
$var wire 1 " Reset_n $end
$var reg 1 ^ Stall $end
$var wire 1 + IF_ID_Flush $end
$var reg 1 _ EX_Flush $end
$var wire 32 1 IF_Instruction [31:0] $end
$var wire 1 8 ID_Mem_rd_en $end
$var wire 5 B ID_Rd_addr [4:0] $end
$var wire 1 O EX_PC_Branch $end
$var wire 1 ; ID_Jump $end
$var wire 7 ` opcode_i [6:0] $end
$var reg 1 a IF_ID_Flush1_i $end
$var reg 1 b IF_ID_Flush2_i $end
$var parameter 32 c REG_DATA_WIDTH [31:0] $end
$var parameter 32 d REGFILE_ADDR_WIDTH [31:0] $end
$upscope $end
$scope module IF_inst $end
$var wire 1 ! Clk $end
$var wire 1 " Reset_n $end
$var wire 32 # IMEM_data [31:0] $end
$var wire 32 N EX_PC_Branch_dest [31:0] $end
$var wire 1 O EX_PC_Branch $end
$var wire 32 = ID_PC_dest [31:0] $end
$var wire 1 ; ID_Jump $end
$var wire 1 e IF_Stall $end
$var wire 1 + IF_Flush $end
$var wire 32 % IMEM_addr [31:0] $end
$var reg 32 f IF_PC [31:0] $end
$var reg 32 g IF_Instruction [31:0] $end
$var wire 32 h Instruction [31:0] $end
$var parameter 32 i REG_DATA_WIDTH [31:0] $end
$var parameter 32 j IMEM_ADDR_WIDTH [31:0] $end
$var parameter 32 k IMEM_DATA_DEPTH [31:0] $end
$scope module RV32I_PC $end
$var wire 1 ! Clk $end
$var wire 1 " Reset_n $end
$var wire 1 e PC_Stall $end
$var wire 1 ; ID_Jump $end
$var wire 32 = ID_PC_dest [31:0] $end
$var wire 1 O EX_PC_Branch $end
$var wire 32 N EX_PC_Branch_dest [31:0] $end
$var reg 32 l PC_Out [31:0] $end
$var reg 32 m PC_Next [31:0] $end
$var parameter 32 n REG_DATA_WIDTH [31:0] $end
$var parameter 32 o IMEM_ADDR_WIDTH [31:0] $end
$upscope $end
$upscope $end
$scope module ID_inst $end
$var wire 1 ! Clk $end
$var wire 1 " Reset_n $end
$var wire 32 0 IF_PC [31:0] $end
$var wire 32 1 IF_Instruction [31:0] $end
$var wire 1 p ID_Stall $end
$var wire 1 + ID_Flush $end
$var wire 5 V WB_Rd_addr [4:0] $end
$var wire 32 W WB_Rd_data [31:0] $end
$var wire 1 Y WB_RegFile_wr_en $end
$var reg 32 q ID_PC [31:0] $end
$var reg 2 r ID_ALU_source_sel [1:0] $end
$var reg 4 s ID_ALU_op [3:0] $end
$var reg 2 t ID_Branch_op [1:0] $end
$var reg 1 u ID_Branch_flag $end
$var reg 1 v ID_Mem_wr_en $end
$var reg 1 w ID_Mem_rd_en $end
$var reg 1 x ID_RegFile_wr_en $end
$var reg 1 y ID_MemToReg $end
$var reg 1 z ID_Jump $end
$var reg 3 { ID_Mem_op [2:0] $end
$var reg 32 | ID_PC_dest [31:0] $end
$var reg 32 } ID_Immediate_1 [31:0] $end
$var reg 32 ~ ID_Immediate_2 [31:0] $end
$var reg 32 !! ID_Rs1_data [31:0] $end
$var reg 32 "! ID_Rs2_data [31:0] $end
$var reg 5 #! ID_Rd_addr [4:0] $end
$var reg 5 $! ID_Rs1_addr [4:0] $end
$var reg 5 %! ID_Rs2_addr [4:0] $end
$var reg 1 &! ID_Exception $end
$var wire 5 '! Rd_addr_i [4:0] $end
$var wire 5 (! Rs1_addr_i [4:0] $end
$var wire 5 )! Rs2_addr_i [4:0] $end
$var wire 32 *! Immediate_1_i [31:0] $end
$var wire 32 +! Immediate_2_i [31:0] $end
$var wire 32 ,! Rs1_data_i [31:0] $end
$var wire 32 -! Rs2_data_i [31:0] $end
$var wire 2 .! ALU_source_sel_i [1:0] $end
$var wire 4 /! ALU_op_i [3:0] $end
$var wire 2 0! Branch_op_i [1:0] $end
$var wire 1 1! Branch_flag_i $end
$var wire 1 2! Mem_wr_en_i $end
$var wire 1 3! RegFile_wr_en_i $end
$var wire 1 4! MemToReg_i $end
$var wire 1 5! Jump_i $end
$var wire 3 6! Mem_op_i [2:0] $end
$var wire 32 7! Branch_dest_i [31:0] $end
$var wire 1 8! Exception_i $end
$var wire 1 9! Mem_rd_en_i $end
$var parameter 32 :! REG_DATA_WIDTH [31:0] $end
$var parameter 32 ;! REGFILE_ADDR_WIDTH [31:0] $end
$var parameter 32 <! REGFILE_DEPTH [31:0] $end
$var parameter 32 =! ALU_OP_WIDTH [31:0] $end
$scope module RV32I_CONTROL $end
$var wire 32 1 IF_Instruction [31:0] $end
$var wire 32 0 IF_PC [31:0] $end
$var reg 5 >! Rd_addr [4:0] $end
$var reg 5 ?! Rs1_addr [4:0] $end
$var reg 5 @! Rs2_addr [4:0] $end
$var reg 32 A! Immediate_1 [31:0] $end
$var reg 32 B! Immediate_2 [31:0] $end
$var reg 2 C! ALU_source_sel [1:0] $end
$var reg 4 D! ALU_op [3:0] $end
$var reg 2 E! Branch_op [1:0] $end
$var reg 1 F! Branch_flag $end
$var reg 1 G! Mem_wr_en $end
$var reg 1 H! Mem_rd_en $end
$var reg 1 I! RegFile_wr_en $end
$var reg 1 J! MemToReg $end
$var reg 1 K! Jump $end
$var reg 3 L! Mem_op [2:0] $end
$var reg 1 M! Exception $end
$var wire 7 N! OPCODE [6:0] $end
$var wire 5 O! RD [4:0] $end
$var wire 4 P! FUNCT3 [3:0] $end
$var wire 1 Q! FUNCT7 $end
$var wire 32 R! IMM_I [31:0] $end
$var wire 32 S! IMM_S [31:0] $end
$var wire 32 T! IMM_B [31:0] $end
$var wire 32 U! IMM_U [31:0] $end
$var wire 32 V! IMM_J [31:0] $end
$var parameter 32 W! REG_DATA_WIDTH [31:0] $end
$var parameter 32 X! REGFILE_ADDR_WIDTH [31:0] $end
$var parameter 32 Y! REGFILE_DEPTH [31:0] $end
$var parameter 32 Z! ALU_OP_WIDTH [31:0] $end
$upscope $end
$scope module RV32I_REGFILE $end
$var wire 1 ! Clk $end
$var wire 1 " Reset_n $end
$var wire 5 (! Rs1_addr [4:0] $end
$var wire 5 )! Rs2_addr [4:0] $end
$var wire 5 V Rd_addr [4:0] $end
$var wire 32 W Rd_wr_data [31:0] $end
$var wire 1 Y Rd_wr_en $end
$var wire 32 ,! Rs1_data [31:0] $end
$var wire 32 -! Rs2_data [31:0] $end
$var parameter 32 [! REG_DATA_WIDTH [31:0] $end
$var parameter 32 \! REGFILE_ADDR_WIDTH [31:0] $end
$var parameter 32 ]! REGFILE_DEPTH [31:0] $end
$scope begin Block91_13 $end
$var reg 32 ^! i $end
$upscope $end
$scope begin Block99_15 $end
$var reg 32 _! i $end
$upscope $end
$upscope $end
$scope module ID_BranchGen $end
$var wire 2 0! Branch_op [1:0] $end
$var wire 32 0 PC [31:0] $end
$var wire 32 ,! RegData [31:0] $end
$var wire 32 +! Immediate [31:0] $end
$var reg 32 `! Branch_dest [31:0] $end
$upscope $end
$upscope $end
$scope module EX_inst $end
$var wire 1 ! Clk $end
$var wire 1 " Reset_n $end
$var reg 1 a! EX_Mem_wr_en $end
$var reg 1 b! EX_Mem_rd_en $end
$var reg 3 c! EX_Mem_op [2:0] $end
$var reg 32 d! EX_Rs2_data [31:0] $end
$var reg 1 e! EX_MemToReg $end
$var reg 32 f! EX_PC_Branch_dest [31:0] $end
$var reg 1 g! EX_RegFile_wr_en $end
$var reg 5 h! EX_Rd_addr [4:0] $end
$var reg 1 i! EX_Exception $end
$var reg 32 j! EX_ALU_result [31:0] $end
$var reg 1 k! EX_PC_Branch $end
$var wire 1 , EX_Flush $end
$var wire 1 7 ID_Mem_wr_en $end
$var wire 1 8 ID_Mem_rd_en $end
$var wire 3 < ID_Mem_op [2:0] $end
$var wire 1 : ID_MemToReg $end
$var wire 1 9 ID_RegFile_wr_en $end
$var wire 5 B ID_Rd_addr [4:0] $end
$var wire 32 = ID_PC_dest [31:0] $end
$var wire 2 5 ID_Branch_op [1:0] $end
$var wire 1 6 ID_Branch_flag $end
$var wire 1 ; ID_Jump $end
$var wire 2 . ForwardA [1:0] $end
$var wire 2 / ForwardB [1:0] $end
$var wire 32 W WB_Rd_data [31:0] $end
$var wire 2 3 ID_ALU_source_sel [1:0] $end
$var wire 4 4 ID_ALU_op [3:0] $end
$var wire 32 2 ID_PC [31:0] $end
$var wire 32 @ ID_Rs1_data [31:0] $end
$var wire 32 A ID_Rs2_data [31:0] $end
$var wire 32 > ID_Immediate_1 [31:0] $end
$var wire 32 ? ID_Immediate_2 [31:0] $end
$var wire 1 E ID_Exception $end
$var reg 32 l! ALU_op1 [31:0] $end
$var reg 32 m! ALU_op2 [31:0] $end
$var wire 32 n! ALU_result [31:0] $end
$var reg 1 o! PC_source_sel $end
$scope module ALU_inst $end
$var wire 4 4 ALU_op [3:0] $end
$var wire 32 p! ALU_op1 [31:0] $end
$var wire 32 q! ALU_op2 [31:0] $end
$var reg 32 r! ALU_result [31:0] $end
$var wire 5 s! shift_i [4:0] $end
$upscope $end
$upscope $end
$scope module MEM_inst $end
$var wire 1 ! Clk $end
$var wire 1 " Reset_n $end
$var reg 32 t! mem_addr [31:0] $end
$var reg 32 u! mem_wr_data [31:0] $end
$var reg 1 v! mem_wr_en $end
$var reg 1 w! mem_rst $end
$var reg 32 x! MEM_dout [31:0] $end
$var reg 1 y! MEM_MemToReg $end
$var reg 32 z! MEM_ALU_result [31:0] $end
$var reg 1 {! MEM_RegFile_wr_en $end
$var reg 5 |! MEM_Rd_addr [4:0] $end
$var reg 1 }! MEM_Exception $end
$var wire 32 $ mem_rd_data [31:0] $end
$var wire 1 F EX_Mem_wr_en $end
$var wire 1 G EX_Mem_rd_en $end
$var wire 3 H EX_Mem_op [2:0] $end
$var wire 1 I EX_MemToReg $end
$var wire 32 J EX_ALU_result [31:0] $end
$var wire 32 K EX_Rs2_data [31:0] $end
$var wire 1 L EX_RegFile_wr_en $end
$var wire 5 M EX_Rd_addr [4:0] $end
$var wire 1 P EX_Exception $end
$var reg 1 ~! misaligned_store_i $end
$var reg 1 !" misaligned_load_i $end
$var reg 3 "" Mem_op_i [2:0] $end
$upscope $end
$scope module WB_inst $end
$var wire 5 V WB_Rd_addr [4:0] $end
$var wire 32 W WB_Rd_data [31:0] $end
$var wire 1 Y WB_RegFile_wr_en $end
$var wire 5 U MEM_Rd_addr [4:0] $end
$var wire 32 Q MEM_dout [31:0] $end
$var wire 32 S MEM_ALU_result [31:0] $end
$var wire 1 R MEM_MemToReg $end
$var wire 1 T MEM_RegFile_wr_en $end
$upscope $end
$upscope $end
$scope begin Block210_32 $end
$var reg 32 #" i $end
$upscope $end
$upscope $end
$enddefinitions $end
#0
$dumpvars
0!
bx !!
0!"
0"
bx "!
bx ""
b0 #
bx #!
b10000000000000000 #"
b0 $
bx $!
0$"
b0 %
bx %!
0%"
bx &
x&!
b0 &"
bx '
b0 '!
b0 '"
x(
b0 (!
b11110 ("
1)
b0 )!
b1111111111111111 )"
x*
b0 *!
x+
b0 +!
0,
bx ,!
0-
bx -!
b0 .
b0 .!
b0 /
b0 /!
bx 0
b0 0!
b0 1
01!
bx 2
02!
bx 3
03!
bx 4
04!
bx 5
05!
x6
b0 6!
x7
bx 7!
x8
08!
x9
09!
x:
b100000 :!
x;
b101 ;!
bx <
b100000 <!
bx =
b100 =!
bx >
b0 >!
bx ?
b0 ?!
bx @
b0 @!
bx A
b0 A!
bx B
b0 B!
bx C
b0 C!
bx D
b0 D!
xE
b0 E!
xF
0F!
xG
0G!
bx H
0H!
xI
0I!
bx J
0J!
bx K
0K!
xL
b0 L!
bx M
0M!
bx N
b0 N!
xO
bz O!
xP
b0 P!
b0 Q
0Q!
xR
b0 R!
bx S
b0 S!
xT
b0 T!
bx U
b0 U!
bx V
b0 V!
bx W
b100000 W!
zX
b101 X!
xY
b100000 Y!
b0 Z
b100 Z!
b0 [
b100000 [!
b100000 \
b101 \!
b101 ]
b100000 ]!
0^
b11111 ^!
0_
b0 _!
b0 `
bx `!
0a
xa!
xb
xb!
b100000 c
bx c!
b101 d
bx d!
0e
xe!
bx f
bx f!
b0 g
xg!
bz h
bx h!
b100000 i
xi!
b1010 j
bx j!
b10000000000 k
xk!
b0 l
bx l!
b0 m
bx m!
b100000 n
b0 n!
b1010 o
xo!
0p
bx p!
bx q
bx q!
bx r
b0 r!
bx s
bx s!
bx t
bx t!
xu
bx u!
xv
xv!
xw
1w!
xx
b0 x!
xy
xy!
xz
bx z!
bx {
x{!
bx |
bx |!
bx }
x}!
bx ~
0~!
$end
#10000
1!
b0 !!
b0 "!
b0 ""
b0 #!
b0 $!
1$"
b0 %!
0&!
b0 '
0(
0*
0+
b0 ,!
b0 -!
b0 0
b0 2
b0 3
b0 4
b0 5
06
07
08
09
0:
0;
b0 <
b0 =
b0 >
b0 >!
b0 ?
b0 ?!
b0 @
b0 @!
b0 A
b0 A!
b0 B
b0 B!
b0 C
b0 C!
b0 D
b0 D!
0E
b0 E!
0F
0F!
0G
0G!
b0 H
0H!
0I
0I!
b0 J
0J!
b0 K
0K!
0L
b0 L!
b0 M
0M!
b0 N
0O
0P
0R
b0 S
0T
b0 U
b0 V
b0 W
0Y
b0 Z
b0 [
0^
0_
b11111 _!
bx `!
0a!
0b
0b!
b0 c!
b0 d!
0e!
b0 f
b0 f!
b0 g
0g!
b0 h!
0i!
b0 j!
0k!
b0 l!
b0 m!
b0 p!
b0 q
b0 q!
b0 r
b0 r!
b0 s
b0 s!
b0 t
bx t!
0u
b0 u!
0v
0v!
0w
1w!
0x
b0 x!
0y
0y!
0z
b0 z!
b0 {
0{!
b0 |
b0 |!
b0 }
0}!
b0 ~
#20000
0!
0$"
#30000
1!
1$"
b11111 _!
#40000
0!
0$"
#50000
1!
1$"
b11111 _!
#60000
0!
0$"
#70000
1!
1$"
b11111 _!
#80000
0!
0$"
#90000
1!
1$"
b11111 _!
#100000
0!
1"
0$"
1%"
0)
b100 m
bx t!
0v!
0w!
#110000
1!
b100100000000000000001101111 #
bx $
1$"
b100 %
b100100000000000000001101111 &"
bx '"
b0 )!
b1001000 +!
b10 .!
b10 0!
b100100000000000000001101111 1
15!
b1001000 7!
bx =
b0 >!
b0 ?!
b0 @!
b0 A!
b1001000 B!
b10 C!
b0 D!
b10 E!
0F!
0G!
0H!
0I!
0J!
1K!
b0 L!
0M!
b1101111 N!
bx Q
b1001000 R!
b1000000 S!
b1000000 T!
b100100000000000000000000000 U!
b1001000 V!
b0 W
0^
b1101111 `
b1001000 `!
b100100000000000000001101111 g
b100 l
bx x!
bx |
#120000
0!
0$"
b1000 m
#130000
1!
b110100001000000010111101110011 #
1$"
b1000 %
b110100001000000010111101110011 &"
b0 '!
b0 )!
1+
b0 +!
b0 .!
b100 0
b0 0!
b0 1
b10 3
b10 5
05!
bx 7!
1;
b1001000 =
b0 >!
b1001000 ?
b0 ?!
b0 @!
b0 A!
b0 B!
b0 C!
b0 D!
b0 E!
0F!
0G!
0H!
0I!
0J!
0K!
b0 L!
0M!
bx N
b0 N!
b0 P!
b0 R!
b0 S!
b0 T!
b0 U!
b0 V!
b0 Z
0^
b0 `
bx `!
1a
b100 f
bx f!
b0 g
b1000 l
b0 l!
b100 m!
b100 n!
b100 q!
b10 r
b100 r!
b100 s!
b10 t
1z
b1001000 |
b1001000 ~
#140000
0!
0$"
b1001000 m
#150000
1!
b100000000000111110010011 #
1$"
b1001000 %
b100000000000111110010011 &"
1+
b1000 0
b0 3
b0 5
0;
b0 =
b0 >!
b0 ?
b0 ?!
b0 @!
b0 A!
b0 B!
b0 C!
b0 D!
b0 E!
0F!
0G!
0H!
0I!
b100 J
0J!
0K!
b0 L!
0M!
b1001000 N
b0 Z
bx `!
0a
1b
b1000 f
b1001000 f!
b0 g
b100 j!
b1001000 l
b0 l!
b0 m!
b0 n!
b0 q!
b0 r
b0 r!
b0 s!
b0 t
bx t!
0v!
0w!
0z
b0 |
b0 ~
#160000
0!
0$"
b1001100 m
#170000
1!
b10010011 #
1$"
b1001100 %
b10010011 &"
b1 '!
0+
b0 ,!
b1 .!
b1001000 0
b10010011 1
13!
b1 >!
b0 ?!
b0 @!
b0 A!
b0 B!
b1 C!
b0 D!
b0 E!
0F!
0G!
0H!
1I!
b0 J
0J!
0K!
b0 L!
0M!
b0 N
b10011 N!
b100 S
b1 S!
b100000000000 T!
b100 W
0^
b10011 `
bx `!
0b
b1001000 f
b0 f!
b10010011 g
b0 j!
b1001100 l
b0 l!
b0 m!
bx t!
0v!
0w!
b100 z!
#180000
0!
0$"
b1010000 m
#190000
1!
b100010011 #
b1 #!
1$"
b1010000 %
b100010011 &"
b10 '!
b0 ,!
b1001100 0
b100010011 1
b1001000 2
b1 3
19
bx =
b10 >!
b0 ?!
b0 @!
b0 A!
b1 B
b0 B!
b1 C!
b0 D!
b0 E!
0F!
0G!
0H!
1I!
0J!
0K!
b0 L!
0M!
b0 S
b10 S!
b10 T!
b0 W
b0 [
0^
bx `!
b1001100 f
b100010011 g
b1010000 l
b0 l!
b0 m!
b1001000 q
b1 r
1x
b0 z!
bx |
#200000
0!
0$"
b1010100 m
#210000
1!
b110010011 #
b10 #!
1$"
b1010100 %
b110010011 &"
b11 '!
b1010000 0
b110010011 1
b1001100 2
b11 >!
b0 ?!
b0 @!
b0 A!
b10 B
b0 B!
b1 C!
b0 D!
b0 E!
0F!
0G!
0H!
1I!
0J!
0K!
1L
b0 L!
b1 M
0M!
bx N
b11 S!
b100000000010 T!
b0 Z
b0 [
0^
bx `!
b1010000 f
bx f!
b110010011 g
1g!
b1 h!
b1010100 l
b1001100 q
#220000
0!
0$"
b1011000 m
#230000
1!
b1000010011 #
b11 #!
1$"
b1011000 %
b1000010011 &"
b100 '!
b0 ,!
b1010100 0
b1000010011 1
b1010000 2
b100 >!
b0 ?!
b0 @!
b0 A!
b11 B
b0 B!
b1 C!
b0 D!
b0 E!
0F!
0G!
0H!
1I!
0J!
0K!
b0 L!
b10 M
0M!
b100 S!
1T
b100 T!
b1 U
b1 V
1Y
b0 Z
b0 [
0^
bx `!
b1010100 f
b1000010011 g
b10 h!
b1011000 l
b1010000 q
1{!
b1 |!
#240000
0!
0$"
b1011100 m
#250000
1!
b1010010011 #
b100 #!
1$"
b1011100 %
b1010010011 &"
b101 '!
b0 ,!
b1011000 0
b1010010011 1
b1010100 2
b101 >!
b0 ?!
b0 @!
b0 A!
b100 B
b0 B!
b1 C!
b0 D!
b0 E!
0F!
0G!
0H!
1I!
0J!
0K!
b0 L!
b11 M
0M!
b101 S!
b100000000100 T!
b10 U
b10 V
b0 Z
b0 [
0^
bx `!
b1011000 f
b1010010011 g
b11 h!
b1011100 l
b1010100 q
b10 |!
#260000
0!
0$"
b1100000 m
#270000
1!
b1100010011 #
b101 #!
1$"
b1100000 %
b1100010011 &"
b110 '!
b0 ,!
b1011100 0
b1100010011 1
b1011000 2
b110 >!
b0 ?!
b0 @!
b0 A!
b101 B
b0 B!
b1 C!
b0 D!
b0 E!
0F!
0G!
0H!
1I!
0J!
0K!
b0 L!
b100 M
0M!
b110 S!
b110 T!
b11 U
b11 V
b0 Z
b0 [
0^
bx `!
b1011100 f
b1100010011 g
b100 h!
b1100000 l
b1011000 q
b11 |!
#280000
0!
0$"
b1100100 m
#290000
1!
b1110010011 #
b110 #!
1$"
b1100100 %
b1110010011 &"
b111 '!
b0 ,!
b1100000 0
b1110010011 1
b1011100 2
b111 >!
b0 ?!
b0 @!
b0 A!
b110 B
b0 B!
b1 C!
b0 D!
b0 E!
0F!
0G!
0H!
1I!
0J!
0K!
b0 L!
b101 M
0M!
b111 S!
b100000000110 T!
b100 U
b100 V
b0 Z
b0 [
0^
bx `!
b1100000 f
b1110010011 g
b101 h!
b1100100 l
b1011100 q
b100 |!
#300000
0!
0$"
b1101000 m
#310000
1!
b10000010011 #
b111 #!
1$"
b1101000 %
b10000010011 &"
b1000 '!
b0 ,!
b1100100 0
b10000010011 1
b1100000 2
b1000 >!
b0 ?!
b0 @!
b0 A!
b111 B
b0 B!
b1 C!
b0 D!
b0 E!
0F!
0G!
0H!
1I!
0J!
0K!
b0 L!
b110 M
0M!
b1000 S!
b1000 T!
b101 U
b101 V
b0 Z
b0 [
0^
bx `!
b1100100 f
b10000010011 g
b110 h!
b1101000 l
b1100000 q
b101 |!
#320000
0!
0$"
b1101100 m
#330000
1!
b10010010011 #
b1000 #!
1$"
b1101100 %
b10010010011 &"
b1001 '!
b0 ,!
b1101000 0
b10010010011 1
b1100100 2
b1001 >!
b0 ?!
b0 @!
b0 A!
b1000 B
b0 B!
b1 C!
b0 D!
b0 E!
0F!
0G!
0H!
1I!
0J!
0K!
b0 L!
b111 M
0M!
b1001 S!
b100000001000 T!
b110 U
b110 V
b0 Z
b0 [
0^
bx `!
b1101000 f
b10010010011 g
b111 h!
b1101100 l
b1100100 q
b110 |!
#340000
0!
0$"
b1110000 m
#350000
1!
b10100010011 #
b1001 #!
1$"
b1110000 %
b10100010011 &"
b1010 '!
b0 ,!
b1101100 0
b10100010011 1
b1101000 2
b1010 >!
b0 ?!
b0 @!
b0 A!
b1001 B
b0 B!
b1 C!
b0 D!
b0 E!
0F!
0G!
0H!
1I!
0J!
0K!
b0 L!
b1000 M
0M!
b1010 S!
b1010 T!
b111 U
b111 V
b0 Z
b0 [
0^
bx `!
b1101100 f
b10100010011 g
b1000 h!
b1110000 l
b1101000 q
b111 |!
#360000
0!
0$"
b1110100 m
#370000
1!
b10110010011 #
b1010 #!
1$"
b1110100 %
b10110010011 &"
b1011 '!
b0 ,!
b1110000 0
b10110010011 1
b1101100 2
b1011 >!
b0 ?!
b0 @!
b0 A!
b1010 B
b0 B!
b1 C!
b0 D!
b0 E!
0F!
0G!
0H!
1I!
0J!
0K!
b0 L!
b1001 M
0M!
b1011 S!
b100000001010 T!
b1000 U
b1000 V
b0 Z
b0 [
0^
bx `!
b1110000 f
b10110010011 g
b1001 h!
b1110100 l
b1101100 q
b1000 |!
#380000
0!
0$"
b1111000 m
#390000
1!
b11000010011 #
b1011 #!
1$"
b1111000 %
b11000010011 &"
b1100 '!
b0 ,!
b1110100 0
b11000010011 1
b1110000 2
b1100 >!
b0 ?!
b0 @!
b0 A!
b1011 B
b0 B!
b1 C!
b0 D!
b0 E!
0F!
0G!
0H!
1I!
0J!
0K!
b0 L!
b1010 M
0M!
b1100 S!
b1100 T!
b1001 U
b1001 V
b0 Z
b0 [
0^
bx `!
b1110100 f
b11000010011 g
b1010 h!
b1111000 l
b1110000 q
b1001 |!
#400000
0!
0$"
b1111100 m
#410000
1!
b11010010011 #
b1100 #!
1$"
b1111100 %
b11010010011 &"
b1101 '!
b0 ,!
b1111000 0
b11010010011 1
b1110100 2
b1101 >!
b0 ?!
b0 @!
b0 A!
b1100 B
b0 B!
b1 C!
b0 D!
b0 E!
0F!
0G!
0H!
1I!
0J!
0K!
b0 L!
b1011 M
0M!
b1101 S!
b100000001100 T!
b1010 U
b1010 V
b0 Z
b0 [
0^
bx `!
b1111000 f
b11010010011 g
b1011 h!
b1111100 l
b1110100 q
b1010 |!
#420000
0!
0$"
b10000000 m
#430000
1!
b11100010011 #
b1101 #!
1$"
b10000000 %
b11100010011 &"
b1110 '!
b0 ,!
b1111100 0
b11100010011 1
b1111000 2
b1110 >!
b0 ?!
b0 @!
b0 A!
b1101 B
b0 B!
b1 C!
b0 D!
b0 E!
0F!
0G!
0H!
1I!
0J!
0K!
b0 L!
b1100 M
0M!
b1110 S!
b1110 T!
b1011 U
b1011 V
b0 Z
b0 [
0^
bx `!
b1111100 f
b11100010011 g
b1100 h!
b10000000 l
b1111000 q
b1011 |!
#440000
0!
0$"
b10000100 m
#450000
1!
b11110010011 #
b1110 #!
1$"
b10000100 %
b11110010011 &"
b1111 '!
b0 ,!
b10000000 0
b11110010011 1
b1111100 2
b1111 >!
b0 ?!
b0 @!
b0 A!
b1110 B
b0 B!
b1 C!
b0 D!
b0 E!
0F!
0G!
0H!
1I!
0J!
0K!
b0 L!
b1101 M
0M!
b1111 S!
b100000001110 T!
b1100 U
b1100 V
b0 Z
b0 [
0^
bx `!
b10000000 f
b11110010011 g
b1101 h!
b10000100 l
b1111100 q
b1100 |!
#460000
0!
0$"
b10001000 m
#470000
1!
b100000010011 #
b1111 #!
1$"
b10001000 %
b100000010011 &"
b10000 '!
b0 ,!
b10000100 0
b100000010011 1
b10000000 2
b10000 >!
b0 ?!
b0 @!
b0 A!
b1111 B
b0 B!
b1 C!
b0 D!
b0 E!
0F!
0G!
0H!
1I!
0J!
0K!
b0 L!
b1110 M
0M!
b10000 S!
b10000 T!
b1101 U
b1101 V
b0 Z
b0 [
0^
bx `!
b10000100 f
b100000010011 g
b1110 h!
b10001000 l
b10000000 q
b1101 |!
#480000
0!
0$"
b10001100 m
#490000
1!
b100010010011 #
b10000 #!
1$"
b10001100 %
b100010010011 &"
b10001 '!
b0 ,!
b10001000 0
b100010010011 1
b10000100 2
b10001 >!
b0 ?!
b0 @!
b0 A!
b10000 B
b0 B!
b1 C!
b0 D!
b0 E!
0F!
0G!
0H!
1I!
0J!
0K!
b0 L!
b1111 M
0M!
b10001 S!
b100000010000 T!
b1110 U
b1110 V
b0 Z
b0 [
0^
bx `!
b10001000 f
b100010010011 g
b1111 h!
b10001100 l
b10000100 q
b1110 |!
#500000
0!
0$"
b10010000 m
#510000
1!
b100100010011 #
b10001 #!
1$"
b10010000 %
b100100010011 &"
b10010 '!
b0 ,!
b10001100 0
b100100010011 1
b10001000 2
b10010 >!
b0 ?!
b0 @!
b0 A!
b10001 B
b0 B!
b1 C!
b0 D!
b0 E!
0F!
0G!
0H!
1I!
0J!
0K!
b0 L!
b10000 M
0M!
b10010 S!
b10010 T!
b1111 U
b1111 V
b0 Z
b0 [
0^
bx `!
b10001100 f
b100100010011 g
b10000 h!
b10010000 l
b10001000 q
b1111 |!
#520000
0!
0$"
b10010100 m
