test/vcd/loads/RVTEST_LW.vcd
$date
   Thu Jul 22 11:59:58 2021
$end
$version
  2020.2
$end
$timescale
  1ps
$end
$scope module riscvTests_tb $end
$var reg 1 ." Clk $end
$var reg 1 /" Reset_n $end
$var reg 32 0" IMEM_data [31:0] $end
$var reg 32 1" DMEM_rd_data [31:0] $end
$var wire 32 % IMEM_addr [31:0] $end
$var wire 32 & DMEM_addr [31:0] $end
$var wire 4 ' DMEM_wr_byte_en [3:0] $end
$var wire 32 ( DMEM_wr_data [31:0] $end
$var wire 1 ) DMEM_wr_en $end
$var wire 1 * DMEM_rst $end
$var wire 1 + Exception $end
$var reg 32 2" DBG_MEM [31:0] $end
$var parameter 32 3" TEST_TO_RUN [31:0] $end
$var parameter 32 4" MEMORY_DEPTH [31:0] $end
$scope module UUT $end
$var wire 1 ! Clk $end
$var wire 1 " Reset_n $end
$var wire 32 # IMEM_data [31:0] $end
$var wire 32 $ DMEM_rd_data [31:0] $end
$var wire 32 % IMEM_addr [31:0] $end
$var wire 32 & DMEM_addr [31:0] $end
$var wire 4 ' DMEM_wr_byte_en [3:0] $end
$var wire 32 ( DMEM_wr_data [31:0] $end
$var wire 1 ) DMEM_wr_en $end
$var wire 1 * DMEM_rst $end
$var wire 1 + Exception $end
$var wire 1 , IF_ID_Flush $end
$var wire 1 - EX_Flush $end
$var reg 1 . Stall $end
$var wire 2 / ForwardA [1:0] $end
$var wire 2 0 ForwardB [1:0] $end
$var wire 1 1 ForwardM $end
$var wire 32 2 IF_PC [31:0] $end
$var wire 32 3 IF_Instruction [31:0] $end
$var wire 32 4 ID_PC [31:0] $end
$var wire 2 5 ID_ALU_source_sel [1:0] $end
$var wire 4 6 ID_ALU_op [3:0] $end
$var wire 2 7 ID_Branch_op [1:0] $end
$var wire 1 8 ID_Branch_flag $end
$var wire 1 9 ID_Mem_wr_en $end
$var wire 1 : ID_Mem_rd_en $end
$var wire 1 ; ID_RegFile_wr_en $end
$var wire 1 < ID_MemToReg $end
$var wire 1 = ID_Jump $end
$var wire 4 > ID_Mem_op [3:0] $end
$var wire 32 ? ID_PC_dest [31:0] $end
$var wire 32 @ ID_Immediate_1 [31:0] $end
$var wire 32 A ID_Immediate_2 [31:0] $end
$var wire 32 B ID_Rs1_data [31:0] $end
$var wire 32 C ID_Rs2_data [31:0] $end
$var wire 5 D ID_Rd_addr [4:0] $end
$var wire 5 E ID_Rs1_addr [4:0] $end
$var wire 5 F ID_Rs2_addr [4:0] $end
$var wire 1 G ID_Exception $end
$var wire 1 H EX_Mem_wr_en $end
$var wire 1 I EX_Mem_rd_en $end
$var wire 4 J EX_Mem_op [3:0] $end
$var wire 1 K EX_MemToReg $end
$var wire 32 L EX_ALU_result [31:0] $end
$var wire 32 M EX_Rs2_data [31:0] $end
$var wire 1 N EX_RegFile_wr_en $end
$var wire 5 O EX_Rd_addr [4:0] $end
$var wire 5 P EX_Rs2_addr [4:0] $end
$var wire 32 Q EX_PC_Branch_dest [31:0] $end
$var wire 1 R EX_PC_Branch $end
$var wire 1 S EX_Exception $end
$var wire 32 T MEM_dout [31:0] $end
$var wire 1 U MEM_MemToReg $end
$var wire 32 V MEM_ALU_result [31:0] $end
$var wire 1 W MEM_RegFile_wr_en $end
$var wire 5 X MEM_Rd_addr [4:0] $end
$var wire 5 Y WB_Rd_addr [4:0] $end
$var wire 32 Z WB_Rd_data [31:0] $end
$var wire 1 [ WB_Rd_wr_en $end
$var wire 1 \ WB_RegFile_wr_en $end
$scope module FWD_inst $end
$var reg 2 ] ForwardA [1:0] $end
$var reg 2 ^ ForwardB [1:0] $end
$var reg 1 _ ForwardM $end
$var wire 2 5 ID_ALU_source_sel [1:0] $end
$var wire 5 E ID_Rs1_addr [4:0] $end
$var wire 5 F ID_Rs2_addr [4:0] $end
$var wire 5 D ID_Rd_addr [4:0] $end
$var wire 5 O EX_Rd_addr [4:0] $end
$var wire 5 P EX_Rs2_addr [4:0] $end
$var wire 5 X MEM_Rd_addr [4:0] $end
$var wire 1 9 ID_Mem_wr_en $end
$var wire 1 N EX_RegFile_wr_en $end
$var wire 1 I EX_Mem_rd_en $end
$var wire 1 W MEM_RegFile_wr_en $end
$var parameter 32 ` REG_DATA_WIDTH [31:0] $end
$var parameter 32 a REGFILE_ADDR_WIDTH [31:0] $end
$upscope $end
$scope module HD_inst $end
$var wire 1 ! Clk $end
$var wire 1 " Reset_n $end
$var reg 1 b Stall $end
$var wire 1 , IF_ID_Flush $end
$var reg 1 c EX_Flush $end
$var wire 32 3 IF_Instruction [31:0] $end
$var wire 1 : ID_Mem_rd_en $end
$var wire 5 D ID_Rd_addr [4:0] $end
$var wire 1 R EX_PC_Branch $end
$var wire 1 = ID_Jump $end
$var wire 1 H DMEM_wr_en $end
$var wire 7 d opcode_i [6:0] $end
$var wire 5 e DBG_IF_Rs1 [4:0] $end
$var wire 5 f DBG_IF_Rs2 [4:0] $end
$var reg 1 g IF_ID_Flush1_i $end
$var reg 1 h IF_ID_Flush2_i $end
$var parameter 32 i REG_DATA_WIDTH [31:0] $end
$var parameter 32 j REGFILE_ADDR_WIDTH [31:0] $end
$upscope $end
$scope module IF_inst $end
$var wire 1 ! Clk $end
$var wire 1 " Reset_n $end
$var wire 32 # IMEM_data [31:0] $end
$var wire 32 Q EX_PC_Branch_dest [31:0] $end
$var wire 1 R EX_PC_Branch $end
$var wire 32 ? ID_PC_dest [31:0] $end
$var wire 1 = ID_Jump $end
$var wire 1 k IF_Stall $end
$var wire 1 , IF_Flush $end
$var reg 32 l IMEM_addr [31:0] $end
$var reg 32 m IF_PC [31:0] $end
$var reg 32 n IF_Instruction [31:0] $end
$var wire 32 o Instruction [31:0] $end
$var wire 32 p IMEM_addr_i [31:0] $end
$var reg 32 q PC_Next [31:0] $end
$var parameter 32 r REG_DATA_WIDTH [31:0] $end
$var parameter 32 s IMEM_ADDR_WIDTH [31:0] $end
$var parameter 32 t IMEM_DATA_DEPTH [31:0] $end
$upscope $end
$scope module ID_inst $end
$var wire 1 ! Clk $end
$var wire 1 " Reset_n $end
$var wire 32 2 IF_PC [31:0] $end
$var wire 32 3 IF_Instruction [31:0] $end
$var wire 1 u ID_Stall $end
$var wire 1 , ID_Flush $end
$var wire 1 N EX_RegFile_wr_en $end
$var wire 5 O EX_Rd_addr [4:0] $end
$var wire 32 L EX_ALU_result [31:0] $end
$var wire 5 Y WB_Rd_addr [4:0] $end
$var wire 32 Z WB_Rd_data [31:0] $end
$var wire 1 \ WB_RegFile_wr_en $end
$var reg 32 v ID_PC [31:0] $end
$var reg 2 w ID_ALU_source_sel [1:0] $end
$var reg 4 x ID_ALU_op [3:0] $end
$var reg 2 y ID_Branch_op [1:0] $end
$var reg 1 z ID_Branch_flag $end
$var reg 1 { ID_Mem_wr_en $end
$var reg 1 | ID_Mem_rd_en $end
$var reg 1 } ID_RegFile_wr_en $end
$var reg 1 ~ ID_MemToReg $end
$var reg 1 !! ID_Jump $end
$var reg 4 "! ID_Mem_op [3:0] $end
$var reg 32 #! ID_PC_dest [31:0] $end
$var reg 32 $! ID_Immediate_1 [31:0] $end
$var reg 32 %! ID_Immediate_2 [31:0] $end
$var reg 32 &! ID_Rs1_data [31:0] $end
$var reg 32 '! ID_Rs2_data [31:0] $end
$var reg 5 (! ID_Rd_addr [4:0] $end
$var reg 5 )! ID_Rs1_addr [4:0] $end
$var reg 5 *! ID_Rs2_addr [4:0] $end
$var reg 1 +! ID_Exception $end
$var wire 5 ,! Rd_addr_i [4:0] $end
$var wire 5 -! Rs1_addr_i [4:0] $end
$var wire 5 .! Rs2_addr_i [4:0] $end
$var wire 32 /! Immediate_1_i [31:0] $end
$var wire 32 0! Immediate_2_i [31:0] $end
$var wire 2 1! ALU_source_sel_i [1:0] $end
$var wire 4 2! ALU_op_i [3:0] $end
$var wire 2 3! Branch_op_i [1:0] $end
$var wire 1 4! Branch_flag_i $end
$var wire 1 5! Mem_wr_en_i $end
$var wire 1 6! RegFile_wr_en_i $end
$var wire 1 7! MemToReg_i $end
$var wire 1 8! Jump_i $end
$var wire 4 9! Mem_op_i [3:0] $end
$var wire 32 :! Branch_dest_i [31:0] $end
$var reg 32 ;! Branch_RegData_i [31:0] $end
$var reg 32 <! Branch_PC_i [31:0] $end
$var wire 1 =! Exception_i $end
$var wire 1 >! Mem_rd_en_i $end
$var parameter 32 ?! REG_DATA_WIDTH [31:0] $end
$var parameter 32 @! REGFILE_ADDR_WIDTH [31:0] $end
$var parameter 32 A! REGFILE_DEPTH [31:0] $end
$var parameter 32 B! ALU_OP_WIDTH [31:0] $end
$scope module RV32I_CONTROL $end
$var wire 32 3 IF_Instruction [31:0] $end
$var wire 32 2 IF_PC [31:0] $end
$var reg 5 C! Rd_addr [4:0] $end
$var reg 5 D! Rs1_addr [4:0] $end
$var reg 5 E! Rs2_addr [4:0] $end
$var reg 32 F! Immediate_1 [31:0] $end
$var reg 32 G! Immediate_2 [31:0] $end
$var reg 2 H! ALU_source_sel [1:0] $end
$var reg 4 I! ALU_op [3:0] $end
$var reg 2 J! Branch_op [1:0] $end
$var reg 1 K! Branch_flag $end
$var reg 1 L! Mem_wr_en $end
$var reg 1 M! Mem_rd_en $end
$var reg 1 N! RegFile_wr_en $end
$var reg 1 O! MemToReg $end
$var reg 1 P! Jump $end
$var reg 4 Q! Mem_op [3:0] $end
$var reg 1 R! Exception $end
$var wire 7 S! OPCODE [6:0] $end
$var wire 5 T! RD [4:0] $end
$var wire 4 U! FUNCT3 [3:0] $end
$var wire 1 V! FUNCT7 $end
$var wire 32 W! IMM_I [31:0] $end
$var wire 32 X! IMM_S [31:0] $end
$var wire 32 Y! IMM_B [31:0] $end
$var wire 32 Z! IMM_U [31:0] $end
$var wire 32 [! IMM_J [31:0] $end
$var parameter 32 \! REG_DATA_WIDTH [31:0] $end
$var parameter 32 ]! REGFILE_ADDR_WIDTH [31:0] $end
$var parameter 32 ^! REGFILE_DEPTH [31:0] $end
$var parameter 32 _! ALU_OP_WIDTH [31:0] $end
$upscope $end
$scope module RV32I_REGFILE $end
$var wire 1 ! Clk $end
$var wire 1 " Reset_n $end
$var wire 5 )! Rs1_addr [4:0] $end
$var wire 5 *! Rs2_addr [4:0] $end
$var wire 5 Y Rd_addr [4:0] $end
$var wire 32 Z Rd_wr_data [31:0] $end
$var wire 1 \ Rd_wr_en $end
$var wire 32 `! Rs1_data [31:0] $end
$var wire 32 a! Rs2_data [31:0] $end
$var parameter 32 b! REG_DATA_WIDTH [31:0] $end
$var parameter 32 c! REGFILE_ADDR_WIDTH [31:0] $end
$var parameter 32 d! REGFILE_DEPTH [31:0] $end
$scope begin Block92_12 $end
$var reg 32 e! i $end
$upscope $end
$scope begin Block100_14 $end
$var reg 32 f! i $end
$upscope $end
$upscope $end
$scope module ID_BranchGen $end
$var wire 2 y Branch_op [1:0] $end
$var wire 32 g! PC [31:0] $end
$var wire 32 h! RegData [31:0] $end
$var wire 32 %! Immediate [31:0] $end
$var reg 32 #! Branch_dest [31:0] $end
$upscope $end
$upscope $end
$scope module EX_inst $end
$var wire 1 ! Clk $end
$var wire 1 " Reset_n $end
$var reg 1 i! EX_Mem_wr_en $end
$var reg 1 j! EX_Mem_rd_en $end
$var reg 4 k! EX_Mem_op [3:0] $end
$var reg 32 l! EX_Rs2_data [31:0] $end
$var reg 1 m! EX_MemToReg $end
$var reg 32 n! EX_PC_Branch_dest [31:0] $end
$var reg 1 o! EX_RegFile_wr_en $end
$var reg 5 p! EX_Rd_addr [4:0] $end
$var reg 5 q! EX_Rs2_addr [4:0] $end
$var reg 1 r! EX_Exception $end
$var reg 32 s! EX_ALU_result [31:0] $end
$var reg 1 t! EX_PC_Branch $end
$var wire 1 - EX_Flush $end
$var wire 1 9 ID_Mem_wr_en $end
$var wire 1 : ID_Mem_rd_en $end
$var wire 4 > ID_Mem_op [3:0] $end
$var wire 1 < ID_MemToReg $end
$var wire 1 ; ID_RegFile_wr_en $end
$var wire 5 D ID_Rd_addr [4:0] $end
$var wire 5 F ID_Rs2_addr [4:0] $end
$var wire 32 ? ID_PC_dest [31:0] $end
$var wire 2 7 ID_Branch_op [1:0] $end
$var wire 1 8 ID_Branch_flag $end
$var wire 1 = ID_Jump $end
$var wire 2 / ForwardA [1:0] $end
$var wire 2 0 ForwardB [1:0] $end
$var wire 32 Z WB_Rd_data [31:0] $end
$var wire 2 5 ID_ALU_source_sel [1:0] $end
$var wire 4 6 ID_ALU_op [3:0] $end
$var wire 32 4 ID_PC [31:0] $end
$var wire 32 B ID_Rs1_data [31:0] $end
$var wire 32 C ID_Rs2_data [31:0] $end
$var wire 32 @ ID_Immediate_1 [31:0] $end
$var wire 32 A ID_Immediate_2 [31:0] $end
$var wire 1 G ID_Exception $end
$var reg 32 u! ALU_op1 [31:0] $end
$var reg 32 v! ALU_op2 [31:0] $end
$var wire 32 w! ALU_result [31:0] $end
$var reg 1 x! PC_source_sel $end
$scope module ALU_inst $end
$var wire 4 6 ALU_op [3:0] $end
$var wire 32 y! ALU_op1 [31:0] $end
$var wire 32 z! ALU_op2 [31:0] $end
$var reg 32 {! ALU_result [31:0] $end
$var wire 5 |! shift_i [4:0] $end
$upscope $end
$upscope $end
$scope module MEM_inst $end
$var wire 1 ! Clk $end
$var wire 1 " Reset_n $end
$var reg 32 }! mem_addr [31:0] $end
$var reg 4 ~! mem_wr_byte_en [3:0] $end
$var reg 32 !" mem_wr_data [31:0] $end
$var reg 1 "" mem_wr_en $end
$var reg 1 #" mem_rst $end
$var reg 32 $" MEM_dout [31:0] $end
$var reg 1 %" MEM_MemToReg $end
$var reg 32 &" MEM_ALU_result [31:0] $end
$var reg 1 '" MEM_RegFile_wr_en $end
$var reg 5 (" MEM_Rd_addr [4:0] $end
$var reg 1 )" MEM_Exception $end
$var wire 32 $ mem_rd_data [31:0] $end
$var wire 1 1 ForwardM $end
$var wire 32 Z WB_Rd_data [31:0] $end
$var wire 1 H EX_Mem_wr_en $end
$var wire 4 J EX_Mem_op [3:0] $end
$var wire 1 K EX_MemToReg $end
$var wire 32 L EX_ALU_result [31:0] $end
$var wire 32 M EX_Rs2_data [31:0] $end
$var wire 1 N EX_RegFile_wr_en $end
$var wire 5 O EX_Rd_addr [4:0] $end
$var wire 1 S EX_Exception $end
$var reg 1 *" misaligned_store_i $end
$var reg 32 +" wr_data_i [31:0] $end
$var reg 4 ," byte_en [3:0] $end
$upscope $end
$scope module WB_inst $end
$var wire 5 Y WB_Rd_addr [4:0] $end
$var wire 32 Z WB_Rd_data [31:0] $end
$var wire 1 \ WB_RegFile_wr_en $end
$var wire 5 X MEM_Rd_addr [4:0] $end
$var wire 32 T MEM_dout [31:0] $end
$var wire 32 V MEM_ALU_result [31:0] $end
$var wire 1 U MEM_MemToReg $end
$var wire 1 W MEM_RegFile_wr_en $end
$upscope $end
$upscope $end
$scope begin Block208_32 $end
$var reg 32 -" i $end
$upscope $end
$upscope $end
$enddefinitions $end
#0
$dumpvars
0!
x!!
bx !"
0"
bx "!
x""
b0 #
bx #!
1#"
b0 $
bx $!
b0 $"
bx %
bx %!
x%"
bx00 &
bx &!
bx &"
b0 '
bx '!
x'"
bx (
bx (!
bx ("
x)
bx )!
x)"
1*
bx *!
0*"
x+
x+!
bx +"
x,
b0 ,!
b0 ,"
0-
b0 -!
b10000000000000000 -"
0.
b0 .!
0."
b0 /
b0 /!
0/"
b0 0
b0 0!
b0 0"
01
b0 1!
b0 1"
bx 2
b0 2!
bx 2"
b0 3
b0 3!
b11110 3"
bx 4
04!
b1111111111111111 4"
bx 5
05!
bx 6
06!
bx 7
07!
x8
08!
x9
bx 9!
x:
bz :!
x;
bx ;!
x<
bx <!
x=
0=!
bx >
0>!
bx ?
b100000 ?!
bx @
b101 @!
bx A
b100000 A!
bx B
b100 B!
bx C
b0 C!
bx D
b0 D!
bx E
b0 E!
bx F
b0 F!
xG
b0 G!
xH
b0 H!
xI
b0 I!
bx J
b0 J!
xK
0K!
bx L
0L!
bx M
0M!
xN
0N!
bx O
0O!
bx P
0P!
bx Q
bx Q!
xR
0R!
xS
b0 S!
b0 T
bz T!
xU
b0 U!
bx V
0V!
xW
b0 W!
bx X
b0 X!
bx Y
b0 Y!
bx Z
b0 Z!
z[
b0 [!
x\
b100000 \!
b0 ]
b101 ]!
b0 ^
b100000 ^!
0_
b100 _!
b100000 `
bx `!
b101 a
bx a!
0b
b100000 b!
0c
b101 c!
b0 d
b100000 d!
b0 e
b11111 e!
b0 f
b0 f!
0g
bx g!
xh
bx h!
b100000 i
xi!
b101 j
xj!
0k
bx k!
bx l
bx l!
bx m
xm!
b0 n
bx n!
bz o
xo!
bz p
bx p!
bx q
bx q!
b100000 r
xr!
b1010 s
bx s!
b10000000000 t
xt!
0u
bx u!
bx v
bx v!
bx w
b0 w!
bx x
xx!
bx y
bx y!
xz
bx z!
x{
b0 {!
x|
bx |!
x}
bx00 }!
x~
b0 ~!
$end
#10000
1!
0!!
bx !"
b0 "!
0""
bx #!
1#"
b0 $!
b0 $"
b0 %
b0 %!
0%"
b0 &
b0 &!
b0 &"
b0 '!
0'"
b0 (!
b0 ("
0)
b0 )!
0)"
b0 *!
0+
0+!
b0 +"
0,
b0 ,"
1."
b0 2
b0 4
b0 5
b0 6
b0 7
08
09
0:
0;
b0 ;!
0<
b0 <!
0=
b0 >
b0 @
b0 A
b0 B
b0 C
b0 C!
b0 D
b0 D!
b0 E
b0 E!
b0 F
b0 F!
0G
b0 G!
0H
b0 H!
0I
b0 I!
b0 J
b0 J!
0K
0K!
b0 L
0L!
b0 M
0M!
0N
0N!
b0 O
0O!
b0 P
0P!
b0 Q
bx Q!
0R
0R!
0S
0U
b0 V
0W
b0 X
b0 Y
b0 Z
0\
b0 ]
b0 ^
0_
b0 `!
b0 a!
0b
0c
b11111 f!
b0 g!
0h
b0 h!
0i!
0j!
b0 k!
b0 l
b0 l!
b0 m
0m!
b0 n
b0 n!
0o!
b0 p!
b100 q
b0 q!
0r!
b0 s!
0t!
b0 u!
b0 v
b0 v!
b0 w
b0 w!
b0 x
b0 y
b0 y!
0z
b0 z!
0{
b0 {!
0|
b0 |!
0}
b0 }!
0~
b0 ~!
#20000
0!
0."
#30000
1!
1."
b11111 f!
#40000
0!
0."
#50000
1!
1."
b11111 f!
#60000
0!
0."
#70000
1!
1."
b11111 f!
#80000
0!
0."
#90000
1!
1."
b11111 f!
#100000
0!
1"
0""
0#"
b0 $"
0*
0."
1/"
b0 }!
b0 ~!
#110000
1!
bx "!
b100100000000000000001101111 #
b100100000000000000001101111 $
b1101111 $"
b100 %
1."
b1001000 0!
b100100000000000000001101111 0"
b10 1!
b100100000000000000001101111 1"
b0 2"
b100100000000000000001101111 3
b10 3!
18!
bx >
b0 C!
b0 D!
b0 E!
b0 F!
b1001000 G!
b10 H!
b0 I!
b10 J!
0K!
0L!
0M!
0N!
0O!
1P!
bx Q
bx Q!
0R!
b1101111 S!
b1101111 T
b1001000 W!
b1000000 X!
b1000000 Y!
b0 Z
b100100000000000000000000000 Z!
b1001000 [!
0b
b1101111 d
b1000 f
b100 l
b100100000000000000001101111 n
bx n!
b1000 q
#120000
0!
0."
#130000
1!
1!!
bx !"
b110100001000000010111101110011 #
b1001000 #!
b1000 %
b1001000 %!
1,
b0 ,!
b0 ,"
b0 .!
1."
b0 0!
b110100001000000010111101110011 0"
b0 1!
b100 2
b0 3
b0 3!
b10 5
b10 7
08!
b0 ;!
1=
b1001000 ?
b1001000 A
b0 C!
b0 D!
b0 E!
b0 F!
b0 G!
b0 H!
b0 I!
bx J
b0 J!
0K!
0L!
0M!
0N!
0O!
0P!
bx Q!
0R!
b0 S!
b0 U!
b0 W!
b0 X!
b0 Y!
b0 Z!
b0 [!
b0 ]
0b
b0 d
b0 f
1g
bx k!
b1000 l
b100 m
b0 n
b1001000 q
b0 u!
b100 v!
b10 w
b100 w!
b10 y
b100 z!
b100 {!
b100 |!
#140000
0!
0."
#150000
1!
0!!
b0 "!
0""
b100000000000111110010011 #
bx #!
0#"
b1001000 %
b0 %!
b100 &
1,
1."
b100000000000111110010011 0"
b1000 2
b0 5
b0 7
b0 ;!
0=
b0 >
bx ?
b0 A
b0 C!
b0 D!
b0 E!
b0 F!
b0 G!
b0 H!
b0 I!
b0 J!
0K!
b100 L
0L!
0M!
0N!
0O!
0P!
b1001000 Q
bx Q!
0R!
b0 ]
0g
1h
b1001000 l
b1000 m
b0 n
b1001000 n!
b1001100 q
b100 s!
b0 u!
b0 v!
b0 w
b0 w!
b0 y
b0 z!
b0 {!
b0 |!
b100 }!
b0 ~!
#160000
0!
0."
#170000
1!
bx !"
0""
b10010011 #
0#"
b110100001000000010111101110011 $
b1110011 $"
b1001100 %
b0 &
b100 &"
b0 +"
0,
b1 ,!
b0 ,"
1."
b10010011 0"
b1 1!
b110100001000000010111101110011 1"
b1001000 2
b10010011 3
16!
b0 ;!
b1 C!
b0 D!
b0 E!
b0 F!
b0 G!
b1 H!
b0 I!
b0 J
b0 J!
0K!
b0 L
0L!
0M!
1N!
0O!
0P!
bx Q
bx Q!
0R!
b10011 S!
b1110011 T
b100 V
b1 X!
b100000000000 Y!
b100 Z
b0 `!
b0 a!
0b
b10011 d
0h
b0 k!
b1001100 l
b1001000 m
b10010011 n
bx n!
b1010000 q
b0 s!
b0 u!
b0 v!
b0 }!
b0 ~!
#180000
0!
0."
#190000
1!
bx "!
b100010011 #
bx #!
b100100000000000000001101111 $
b1101111 $"
b1010000 %
b0 &"
b1 (!
b0 +"
b10 ,!
1."
b100010011 0"
b100100000000000000001101111 1"
b1001100 2
b100010011 3
b1001000 4
b1 5
1;
b1001000 <!
bx >
b10 C!
b1 D
b0 D!
b0 E!
b0 F!
b0 G!
b1 H!
b0 I!
b0 J!
0K!
0L!
0M!
1N!
0O!
0P!
bx Q!
0R!
b1101111 T
b0 V
b10 X!
b10 Y!
b0 Z
b0 ^
b0 `!
b0 a!
0b
b1001000 g!
b1010000 l
b1001100 m
b100010011 n
b1010100 q
b0 u!
b1001000 v
b0 v!
b1 w
1}
#200000
0!
0."
#210000
1!
bx !"
b110010011 #
bx #!
b1010100 %
b10 (!
b11 ,!
b0 ,"
1."
b110010011 0"
b1010000 2
b110010011 3
b1001100 4
b0 ;!
b1001100 <!
b11 C!
b10 D
b0 D!
b0 E!
b0 F!
b0 G!
b1 H!
b0 I!
bx J
b0 J!
0K!
0L!
0M!
1N
1N!
b1 O
0O!
0P!
bx Q!
0R!
b11 X!
b100000000010 Y!
b0 ]
b0 ^
0b
b1001100 g!
bx k!
b1010100 l
b1010000 m
b110010011 n
1o!
b1 p!
b1011000 q
b1001100 v
#220000
0!
0."
#230000
1!
b1000010011 #
bx #!
b1011000 %
1'"
b11 (!
b1 ("
b100 ,!
1."
b1000010011 0"
b1010100 2
b1000010011 3
b1010000 4
b0 ;!
b1010000 <!
b100 C!
b11 D
b0 D!
b0 E!
b0 F!
b0 G!
b1 H!
b0 I!
b0 J!
0K!
0L!
0M!
1N!
b10 O
0O!
0P!
bx Q!
0R!
1W
b1 X
b100 X!
b1 Y
b100 Y!
1\
b0 ]
b0 ^
0_
b0 `!
b0 a!
0b
b1010000 g!
b1011000 l
b1010100 m
b1000010011 n
b10 p!
b1011100 q
b1010000 v
#240000
0!
0."
#250000
1!
b1010010011 #
bx #!
b1011100 %
b100 (!
b10 ("
b101 ,!
1."
b1010010011 0"
b1011000 2
b1010010011 3
b1010100 4
b0 ;!
b1010100 <!
b101 C!
b100 D
b0 D!
b0 E!
b0 F!
b0 G!
b1 H!
b0 I!
b0 J!
0K!
0L!
0M!
1N!
b11 O
0O!
0P!
bx Q!
0R!
b10 X
b101 X!
b10 Y
b100000000100 Y!
b0 ]
b0 ^
0_
b0 `!
b0 a!
0b
b1010100 g!
b1011100 l
b1011000 m
b1010010011 n
b11 p!
b1100000 q
b1010100 v
#260000
0!
0."
#270000
1!
b1100010011 #
bx #!
b1100000 %
b101 (!
b11 ("
b110 ,!
1."
b1100010011 0"
b1011100 2
b1100010011 3
b1011000 4
b0 ;!
b1011000 <!
b110 C!
b101 D
b0 D!
b0 E!
b0 F!
b0 G!
b1 H!
b0 I!
b0 J!
0K!
0L!
0M!
1N!
b100 O
0O!
0P!
bx Q!
0R!
b11 X
b110 X!
b11 Y
b110 Y!
b0 ]
b0 ^
0_
b0 `!
b0 a!
0b
b1011000 g!
b1100000 l
b1011100 m
b1100010011 n
b100 p!
b1100100 q
b1011000 v
#280000
0!
0."
#290000
1!
b1110010011 #
bx #!
b1100100 %
b110 (!
b100 ("
b111 ,!
1."
b1110010011 0"
b1100000 2
b1110010011 3
b1011100 4
b0 ;!
b1011100 <!
b111 C!
b110 D
b0 D!
b0 E!
b0 F!
b0 G!
b1 H!
b0 I!
b0 J!
0K!
0L!
0M!
1N!
b101 O
0O!
0P!
bx Q!
0R!
b100 X
b111 X!
b100 Y
b100000000110 Y!
b0 ]
b0 ^
0_
b0 `!
b0 a!
0b
b1011100 g!
b1100100 l
b1100000 m
b1110010011 n
b101 p!
b1101000 q
b1011100 v
#300000
0!
0."
#310000
1!
b10000010011 #
bx #!
b1101000 %
b111 (!
b101 ("
b1000 ,!
1."
b10000010011 0"
b1100100 2
b10000010011 3
b1100000 4
b0 ;!
b1100000 <!
b1000 C!
b111 D
b0 D!
b0 E!
b0 F!
b0 G!
b1 H!
b0 I!
b0 J!
0K!
0L!
0M!
1N!
b110 O
0O!
0P!
bx Q!
0R!
b101 X
b1000 X!
b101 Y
b1000 Y!
b0 ]
b0 ^
0_
b0 `!
b0 a!
0b
b1100000 g!
b1101000 l
b1100100 m
b10000010011 n
b110 p!
b1101100 q
b1100000 v
#320000
0!
0."
#330000
1!
b10010010011 #
bx #!
b1101100 %
b1000 (!
b110 ("
b1001 ,!
1."
b10010010011 0"
b1101000 2
b10010010011 3
b1100100 4
b0 ;!
b1100100 <!
b1001 C!
b1000 D
b0 D!
b0 E!
b0 F!
b0 G!
b1 H!
b0 I!
b0 J!
0K!
0L!
0M!
1N!
b111 O
0O!
0P!
bx Q!
0R!
b110 X
b1001 X!
b110 Y
b100000001000 Y!
b0 ]
b0 ^
0_
b0 `!
b0 a!
0b
b1100100 g!
b1101100 l
b1101000 m
b10010010011 n
b111 p!
b1110000 q
b1100100 v
#340000
0!
0."
#350000
1!
b10100010011 #
bx #!
b1110000 %
b1001 (!
b111 ("
b1010 ,!
1."
b10100010011 0"
b1101100 2
b10100010011 3
b1101000 4
b0 ;!
b1101000 <!
b1010 C!
b1001 D
b0 D!
b0 E!
b0 F!
b0 G!
b1 H!
b0 I!
b0 J!
0K!
0L!
0M!
1N!
b1000 O
0O!
0P!
bx Q!
0R!
b111 X
b1010 X!
b111 Y
b1010 Y!
b0 ]
b0 ^
0_
b0 `!
b0 a!
0b
b1101000 g!
b1110000 l
b1101100 m
b10100010011 n
b1000 p!
b1110100 q
b1101000 v
#360000
0!
0."
#370000
1!
b10110010011 #
bx #!
b1110100 %
b1010 (!
b1000 ("
b1011 ,!
1."
b10110010011 0"
b1110000 2
b10110010011 3
b1101100 4
b0 ;!
b1101100 <!
b1011 C!
b1010 D
b0 D!
b0 E!
b0 F!
b0 G!
b1 H!
b0 I!
b0 J!
0K!
0L!
0M!
1N!
b1001 O
0O!
0P!
bx Q!
0R!
b1000 X
b1011 X!
b1000 Y
b100000001010 Y!
b0 ]
b0 ^
0_
b0 `!
b0 a!
0b
b1101100 g!
b1110100 l
b1110000 m
b10110010011 n
b1001 p!
b1111000 q
b1101100 v
#380000
0!
0."
#390000
1!
b11000010011 #
bx #!
b1111000 %
b1011 (!
b1001 ("
b1100 ,!
1."
b11000010011 0"
b1110100 2
b11000010011 3
b1110000 4
b0 ;!
b1110000 <!
b1100 C!
b1011 D
b0 D!
b0 E!
b0 F!
b0 G!
b1 H!
b0 I!
b0 J!
0K!
0L!
0M!
1N!
b1010 O
0O!
0P!
bx Q!
0R!
b1001 X
b1100 X!
b1001 Y
b1100 Y!
b0 ]
b0 ^
0_
b0 `!
b0 a!
0b
b1110000 g!
b1111000 l
b1110100 m
b11000010011 n
b1010 p!
b1111100 q
b1110000 v
#400000
0!
0."
#410000
1!
b11010010011 #
bx #!
b1111100 %
b1100 (!
b1010 ("
b1101 ,!
1."
b11010010011 0"
b1111000 2
b11010010011 3
b1110100 4
b0 ;!
b1110100 <!
b1101 C!
b1100 D
b0 D!
b0 E!
b0 F!
b0 G!
b1 H!
b0 I!
b0 J!
0K!
0L!
0M!
1N!
b1011 O
0O!
0P!
bx Q!
0R!
b1010 X
b1101 X!
b1010 Y
b100000001100 Y!
b0 ]
b0 ^
0_
b0 `!
b0 a!
0b
b1110100 g!
b1111100 l
b1111000 m
b11010010011 n
b1011 p!
b10000000 q
b1110100 v
#420000
0!
0."
#430000
1!
b11100010011 #
bx #!
b10000000 %
b1101 (!
b1011 ("
b1110 ,!
1."
b11100010011 0"
b1111100 2
b11100010011 3
b1111000 4
b0 ;!
b1111000 <!
b1110 C!
b1101 D
b0 D!
b0 E!
b0 F!
b0 G!
b1 H!
b0 I!
b0 J!
0K!
0L!
0M!
1N!
b1100 O
0O!
0P!
bx Q!
0R!
b1011 X
b1110 X!
b1011 Y
b1110 Y!
b0 ]
b0 ^
0_
b0 `!
b0 a!
0b
b1111000 g!
b10000000 l
b1111100 m
b11100010011 n
b1100 p!
b10000100 q
b1111000 v
#440000
0!
0."
