Test/test-results/reg_imm/RVTEST_XORI.vcd
$date
   Fri Jul 16 14:33:06 2021
$end
$version
  2020.2
$end
$timescale
  1ps
$end
$scope module riscvTests_tb $end
$var reg 1 x! Clk $end
$var reg 1 y! Reset_n $end
$var reg 32 z! IMEM_data [31:0] $end
$var reg 32 {! DMEM_rd_data [31:0] $end
$var wire 32 % IMEM_addr [31:0] $end
$var wire 32 & DMEM_addr [31:0] $end
$var wire 32 ' DMEM_wr_data [31:0] $end
$var wire 1 ( DMEM_wr_en $end
$var wire 1 ) DMEM_rst $end
$var parameter 32 |! IMEM_DEPTH [31:0] $end
$var parameter 32 }! PROGMEM_DEPTH [31:0] $end
$var parameter 32 ~! DMEM_DEPTH [31:0] $end
$scope module UUT $end
$var wire 1 ! Clk $end
$var wire 1 " Reset_n $end
$var wire 32 # IMEM_data [31:0] $end
$var wire 32 $ DMEM_rd_data [31:0] $end
$var wire 32 % IMEM_addr [31:0] $end
$var wire 32 & DMEM_addr [31:0] $end
$var wire 32 ' DMEM_wr_data [31:0] $end
$var wire 1 ( DMEM_wr_en $end
$var wire 1 ) DMEM_rst $end
$var wire 1 * IF_ID_Flush $end
$var wire 1 + EX_Flush $end
$var reg 1 , Stall $end
$var wire 2 - ForwardA [1:0] $end
$var wire 2 . ForwardB [1:0] $end
$var wire 32 / IF_PC [31:0] $end
$var wire 32 0 IF_Instruction [31:0] $end
$var wire 32 1 ID_PC [31:0] $end
$var wire 2 2 ID_ALU_source_sel [1:0] $end
$var wire 4 3 ID_ALU_op [3:0] $end
$var wire 2 4 ID_Branch_op [1:0] $end
$var wire 1 5 ID_Branch_flag $end
$var wire 1 6 ID_Mem_wr_en $end
$var wire 1 7 ID_Mem_rd_en $end
$var wire 1 8 ID_RegFile_wr_en $end
$var wire 1 9 ID_MemToReg $end
$var wire 1 : ID_Jump $end
$var wire 3 ; ID_Mem_op [2:0] $end
$var wire 32 < ID_PC_dest [31:0] $end
$var wire 32 = ID_Immediate_1 [31:0] $end
$var wire 32 > ID_Immediate_2 [31:0] $end
$var wire 32 ? ID_Rs1_data [31:0] $end
$var wire 32 @ ID_Rs2_data [31:0] $end
$var wire 5 A ID_Rd_addr [4:0] $end
$var wire 5 B ID_Rs1_addr [4:0] $end
$var wire 5 C ID_Rs2_addr [4:0] $end
$var wire 1 D EX_Mem_wr_en $end
$var wire 1 E EX_Mem_rd_en $end
$var wire 3 F EX_Mem_op [2:0] $end
$var wire 1 G EX_MemToReg $end
$var wire 32 H EX_ALU_result [31:0] $end
$var wire 32 I EX_Rs2_data [31:0] $end
$var wire 1 J EX_RegFile_wr_en $end
$var wire 5 K EX_Rd_addr [4:0] $end
$var wire 32 L EX_PC_Branch_dest [31:0] $end
$var wire 1 M EX_PC_Branch $end
$var wire 32 N MEM_dout [31:0] $end
$var wire 1 O MEM_MemToReg $end
$var wire 32 P MEM_ALU_result [31:0] $end
$var wire 1 Q MEM_RegFile_wr_en $end
$var wire 5 R MEM_Rd_addr [4:0] $end
$var wire 5 S WB_Rd_addr [4:0] $end
$var wire 32 T WB_Rd_data [31:0] $end
$var wire 1 U WB_Rd_wr_en $end
$var wire 1 V WB_RegFile_wr_en $end
$scope module FWD_inst $end
$var reg 2 W ForwardA [1:0] $end
$var reg 2 X ForwardB [1:0] $end
$var wire 2 2 ID_ALU_source_sel [1:0] $end
$var wire 5 B ID_Rs1_addr [4:0] $end
$var wire 5 C ID_Rs2_addr [4:0] $end
$var wire 5 A ID_Rd_addr [4:0] $end
$var wire 5 K EX_Rd_addr [4:0] $end
$var wire 5 R MEM_Rd_addr [4:0] $end
$var wire 1 J EX_RegFile_wr_en $end
$var wire 1 Q MEM_RegFile_wr_en $end
$var parameter 32 Y REG_DATA_WIDTH [31:0] $end
$var parameter 32 Z REGFILE_ADDR_WIDTH [31:0] $end
$upscope $end
$scope module HD_inst $end
$var wire 1 ! Clk $end
$var wire 1 " Reset_n $end
$var reg 1 [ Stall $end
$var wire 1 * IF_ID_Flush $end
$var reg 1 \ EX_Flush $end
$var wire 32 0 IF_Instruction [31:0] $end
$var wire 1 7 ID_Mem_rd_en $end
$var wire 5 A ID_Rd_addr [4:0] $end
$var wire 1 M EX_PC_Branch $end
$var wire 1 : ID_Jump $end
$var wire 7 ] opcode_i [6:0] $end
$var reg 1 ^ IF_ID_Flush1_i $end
$var reg 1 _ IF_ID_Flush2_i $end
$var parameter 32 ` REG_DATA_WIDTH [31:0] $end
$var parameter 32 a REGFILE_ADDR_WIDTH [31:0] $end
$upscope $end
$scope module IF_inst $end
$var wire 1 ! Clk $end
$var wire 1 " Reset_n $end
$var wire 32 # IMEM_data [31:0] $end
$var wire 32 L EX_PC_Branch_dest [31:0] $end
$var wire 1 M EX_PC_Branch $end
$var wire 32 < ID_PC_dest [31:0] $end
$var wire 1 : ID_Jump $end
$var wire 1 b IF_Stall $end
$var wire 1 * IF_Flush $end
$var wire 32 % IMEM_addr [31:0] $end
$var reg 32 c IF_PC [31:0] $end
$var reg 32 d IF_Instruction [31:0] $end
$var wire 32 e Instruction [31:0] $end
$var parameter 32 f REG_DATA_WIDTH [31:0] $end
$var parameter 32 g IMEM_ADDR_WIDTH [31:0] $end
$var parameter 32 h IMEM_DATA_DEPTH [31:0] $end
$scope module RV32I_PC $end
$var wire 1 ! Clk $end
$var wire 1 " Reset_n $end
$var wire 1 b PC_Stall $end
$var wire 1 : ID_Jump $end
$var wire 32 < ID_PC_dest [31:0] $end
$var wire 1 M EX_PC_Branch $end
$var wire 32 L EX_PC_Branch_dest [31:0] $end
$var reg 32 i PC_Out [31:0] $end
$var reg 32 j PC_Next [31:0] $end
$var parameter 32 k REG_DATA_WIDTH [31:0] $end
$var parameter 32 l IMEM_ADDR_WIDTH [31:0] $end
$upscope $end
$upscope $end
$scope module ID_inst $end
$var wire 1 ! Clk $end
$var wire 1 " Reset_n $end
$var wire 32 / IF_PC [31:0] $end
$var wire 32 0 IF_Instruction [31:0] $end
$var wire 1 m ID_Stall $end
$var wire 1 * ID_Flush $end
$var wire 5 S WB_Rd_addr [4:0] $end
$var wire 32 T WB_Rd_data [31:0] $end
$var wire 1 V WB_RegFile_wr_en $end
$var reg 32 n ID_PC [31:0] $end
$var reg 2 o ID_ALU_source_sel [1:0] $end
$var reg 4 p ID_ALU_op [3:0] $end
$var reg 2 q ID_Branch_op [1:0] $end
$var reg 1 r ID_Branch_flag $end
$var reg 1 s ID_Mem_wr_en $end
$var reg 1 t ID_Mem_rd_en $end
$var reg 1 u ID_RegFile_wr_en $end
$var reg 1 v ID_MemToReg $end
$var reg 1 w ID_Jump $end
$var reg 3 x ID_Mem_op [2:0] $end
$var reg 32 y ID_PC_dest [31:0] $end
$var reg 32 z ID_Immediate_1 [31:0] $end
$var reg 32 { ID_Immediate_2 [31:0] $end
$var reg 32 | ID_Rs1_data [31:0] $end
$var reg 32 } ID_Rs2_data [31:0] $end
$var reg 5 ~ ID_Rd_addr [4:0] $end
$var reg 5 !! ID_Rs1_addr [4:0] $end
$var reg 5 "! ID_Rs2_addr [4:0] $end
$var wire 5 #! Rd_addr_i [4:0] $end
$var wire 5 $! Rs1_addr_i [4:0] $end
$var wire 5 %! Rs2_addr_i [4:0] $end
$var wire 32 &! Immediate_1_i [31:0] $end
$var wire 32 '! Immediate_2_i [31:0] $end
$var wire 32 (! Rs1_data_i [31:0] $end
$var wire 32 )! Rs2_data_i [31:0] $end
$var wire 2 *! ALU_source_sel_i [1:0] $end
$var wire 4 +! ALU_op_i [3:0] $end
$var wire 2 ,! Branch_op_i [1:0] $end
$var wire 1 -! Branch_flag_i $end
$var wire 1 .! Mem_wr_en_i $end
$var wire 1 /! RegFile_wr_en_i $end
$var wire 1 0! MemToReg_i $end
$var wire 1 1! Jump_i $end
$var wire 3 2! Mem_op_i [2:0] $end
$var wire 32 3! Branch_dest_i [31:0] $end
$var wire 1 4! Mem_rd_en_i $end
$var parameter 32 5! REG_DATA_WIDTH [31:0] $end
$var parameter 32 6! REGFILE_ADDR_WIDTH [31:0] $end
$var parameter 32 7! REGFILE_DEPTH [31:0] $end
$var parameter 32 8! ALU_OP_WIDTH [31:0] $end
$scope module RV32I_CONTROL $end
$var wire 32 0 IF_Instruction [31:0] $end
$var wire 32 / IF_PC [31:0] $end
$var reg 5 9! Rd_addr [4:0] $end
$var reg 5 :! Rs1_addr [4:0] $end
$var reg 5 ;! Rs2_addr [4:0] $end
$var reg 32 <! Immediate_1 [31:0] $end
$var reg 32 =! Immediate_2 [31:0] $end
$var reg 2 >! ALU_source_sel [1:0] $end
$var reg 4 ?! ALU_op [3:0] $end
$var reg 2 @! Branch_op [1:0] $end
$var reg 1 A! Branch_flag $end
$var reg 1 B! Mem_wr_en $end
$var reg 1 C! Mem_rd_en $end
$var reg 1 D! RegFile_wr_en $end
$var reg 1 E! MemToReg $end
$var reg 1 F! Jump $end
$var reg 3 G! Mem_op [2:0] $end
$var wire 7 H! OPCODE [6:0] $end
$var wire 5 I! RD [4:0] $end
$var wire 4 J! FUNCT3 [3:0] $end
$var wire 1 K! FUNCT7 $end
$var wire 32 L! IMM_I [31:0] $end
$var wire 32 M! IMM_S [31:0] $end
$var wire 32 N! IMM_B [31:0] $end
$var wire 32 O! IMM_U [31:0] $end
$var wire 32 P! IMM_J [31:0] $end
$var parameter 32 Q! REG_DATA_WIDTH [31:0] $end
$var parameter 32 R! REGFILE_ADDR_WIDTH [31:0] $end
$var parameter 32 S! REGFILE_DEPTH [31:0] $end
$var parameter 32 T! ALU_OP_WIDTH [31:0] $end
$upscope $end
$scope module RV32I_REGFILE $end
$var wire 1 ! Clk $end
$var wire 1 " Reset_n $end
$var wire 5 $! Rs1_addr [4:0] $end
$var wire 5 %! Rs2_addr [4:0] $end
$var wire 5 S Rd_addr [4:0] $end
$var wire 32 T Rd_wr_data [31:0] $end
$var wire 1 V Rd_wr_en $end
$var wire 32 (! Rs1_data [31:0] $end
$var wire 32 )! Rs2_data [31:0] $end
$var parameter 32 U! REG_DATA_WIDTH [31:0] $end
$var parameter 32 V! REGFILE_ADDR_WIDTH [31:0] $end
$var parameter 32 W! REGFILE_DEPTH [31:0] $end
$scope begin Block91_13 $end
$var reg 32 X! i $end
$upscope $end
$scope begin Block99_15 $end
$var reg 32 Y! i $end
$upscope $end
$upscope $end
$scope module ID_BranchGen $end
$var wire 2 ,! Branch_op [1:0] $end
$var wire 32 / PC [31:0] $end
$var wire 32 (! RegData [31:0] $end
$var wire 32 '! Immediate [31:0] $end
$var reg 32 Z! Branch_dest [31:0] $end
$upscope $end
$upscope $end
$scope module EX_inst $end
$var wire 1 ! Clk $end
$var wire 1 " Reset_n $end
$var reg 1 [! EX_Mem_wr_en $end
$var reg 1 \! EX_Mem_rd_en $end
$var reg 3 ]! EX_Mem_op [2:0] $end
$var reg 32 ^! EX_Rs2_data [31:0] $end
$var reg 1 _! EX_MemToReg $end
$var reg 32 `! EX_PC_Branch_dest [31:0] $end
$var reg 1 a! EX_RegFile_wr_en $end
$var reg 5 b! EX_Rd_addr [4:0] $end
$var reg 32 c! EX_ALU_result [31:0] $end
$var reg 1 d! EX_PC_Branch $end
$var wire 1 + EX_Flush $end
$var wire 1 6 ID_Mem_wr_en $end
$var wire 1 7 ID_Mem_rd_en $end
$var wire 3 ; ID_Mem_op [2:0] $end
$var wire 1 9 ID_MemToReg $end
$var wire 1 8 ID_RegFile_wr_en $end
$var wire 5 A ID_Rd_addr [4:0] $end
$var wire 32 < ID_PC_dest [31:0] $end
$var wire 2 4 ID_Branch_op [1:0] $end
$var wire 1 5 ID_Branch_flag $end
$var wire 1 : ID_Jump $end
$var wire 2 - ForwardA [1:0] $end
$var wire 2 . ForwardB [1:0] $end
$var wire 32 T WB_Rd_data [31:0] $end
$var wire 2 2 ID_ALU_source_sel [1:0] $end
$var wire 4 3 ID_ALU_op [3:0] $end
$var wire 32 1 ID_PC [31:0] $end
$var wire 32 ? ID_Rs1_data [31:0] $end
$var wire 32 @ ID_Rs2_data [31:0] $end
$var wire 32 = ID_Immediate_1 [31:0] $end
$var wire 32 > ID_Immediate_2 [31:0] $end
$var reg 32 e! ALU_op1 [31:0] $end
$var reg 32 f! ALU_op2 [31:0] $end
$var wire 32 g! ALU_result [31:0] $end
$var reg 1 h! PC_source_sel $end
$scope module ALU_inst $end
$var wire 4 3 ALU_op [3:0] $end
$var wire 32 i! ALU_op1 [31:0] $end
$var wire 32 j! ALU_op2 [31:0] $end
$var reg 32 k! ALU_result [31:0] $end
$var wire 5 l! shift_i [4:0] $end
$upscope $end
$upscope $end
$scope module MEM_inst $end
$var wire 1 ! Clk $end
$var wire 1 " Reset_n $end
$var reg 32 m! mem_addr [31:0] $end
$var reg 32 n! mem_wr_data [31:0] $end
$var reg 1 o! mem_wr_en $end
$var reg 1 p! mem_rst $end
$var reg 32 q! MEM_dout [31:0] $end
$var reg 1 r! MEM_MemToReg $end
$var reg 32 s! MEM_ALU_result [31:0] $end
$var reg 1 t! MEM_RegFile_wr_en $end
$var reg 5 u! MEM_Rd_addr [4:0] $end
$var wire 32 $ mem_rd_data [31:0] $end
$var wire 1 D EX_Mem_wr_en $end
$var wire 1 E EX_Mem_rd_en $end
$var wire 3 F EX_Mem_op [2:0] $end
$var wire 1 G EX_MemToReg $end
$var wire 32 H EX_ALU_result [31:0] $end
$var wire 32 I EX_Rs2_data [31:0] $end
$var wire 1 J EX_RegFile_wr_en $end
$var wire 5 K EX_Rd_addr [4:0] $end
$upscope $end
$scope module WB_inst $end
$var wire 5 S WB_Rd_addr [4:0] $end
$var wire 32 T WB_Rd_data [31:0] $end
$var wire 1 V WB_RegFile_wr_en $end
$var wire 5 R MEM_Rd_addr [4:0] $end
$var wire 32 N MEM_dout [31:0] $end
$var wire 32 P MEM_ALU_result [31:0] $end
$var wire 1 O MEM_MemToReg $end
$var wire 1 Q MEM_RegFile_wr_en $end
$upscope $end
$upscope $end
$scope begin Block179_30 $end
$var reg 32 v! i $end
$upscope $end
$scope begin Block183_32 $end
$var reg 32 w! j $end
$upscope $end
$upscope $end
$enddefinitions $end
#0
$dumpvars
0!
bx !!
0"
bx "!
bx #
bx #!
bx $
bx $!
b0 %
bx %!
bx &
b0 &!
b0 '
b0 '!
x(
bx (!
1)
bx )!
x*
b0 *!
0+
b0 +!
0,
b0 ,!
b0 -
0-!
b0 .
0.!
bx /
0/!
bx 0
00!
bx 1
01!
bx 2
b0 2!
bx 3
bx 3!
bx 4
04!
x5
b100000 5!
x6
b101 6!
x7
b100000 7!
x8
b100 8!
x9
bx 9!
x:
bx :!
bx ;
bx ;!
bx <
b0 <!
bx =
b0 =!
bx >
b0 >!
bx ?
b0 ?!
bx @
b0 @!
bx A
0A!
bx B
0B!
bx C
0C!
xD
0D!
xE
0E!
bx F
0F!
xG
b0 G!
bx H
bx H!
bx I
bz I!
xJ
b0xxx J!
bx K
xK!
bx L
bx L!
xM
bx M!
bx N
bx0 N!
xO
bx000000000000 O!
bx P
bx0 P!
xQ
b100000 Q!
bx R
b101 R!
bx S
b100000 S!
bx T
b100 T!
zU
b100000 U!
xV
b101 V!
b0 W
b100000 W!
b0 X
b11111 X!
b100000 Y
b0 Y!
b101 Z
bx Z!
0[
x[!
0\
x\!
bx ]
bx ]!
0^
bx ^!
x_
x_!
b100000 `
bx `!
b101 a
xa!
0b
bx b!
bx c
bx c!
bx d
xd!
bz e
bx e!
b100000 f
bx f!
b1010 g
b0 g!
b10000000000 h
xh!
b0 i
bx i!
b0 j
bx j!
b100000 k
b0 k!
b1010 l
bx l!
0m
bx m!
bx n
b0 n!
bx o
xo!
bx p
1p!
bx q
bx q!
xr
xr!
xs
bx s!
xt
xt!
xu
bx u!
xv
b1000000000 v!
xw
b100000000000 w!
bx x
0x!
bx y
0y!
bx z
bx z!
bx {
bx {!
bx |
b11111111111 |!
bx }
b11111111111 }!
bx ~
b11111111111 ~!
$end
#10000
1!
b0 !!
b0 "!
b10011 #
b0 #!
b0 $
b0 $!
b0 %!
b0 &
0(
b0 (!
b0 )!
0*
b1 *!
b0 /
b10011 0
b0 1
b0 2
b0 3
b0 4
05
06
07
08
09
b0 9!
0:
b0 :!
b0 ;
b0 ;!
b0 <
b0 <!
b0 =
b0 =!
b0 >
b1 >!
b0 ?
b0 ?!
b0 @
b0 @!
b0 A
0A!
b0 B
0B!
b0 C
0C!
0D
0D!
0E
0E!
b0 F
0F!
0G
b0 G!
b0 H
b10011 H!
b0 I
0J
b0 J!
b0 K
0K!
b0 L
b0 L!
0M
b0 M!
b0 N
b0 N!
0O
b0 O!
b0 P
b0 P!
0Q
b0 R
b0 S
b0 T
0V
b0 W
b0 X
b11111 Y!
bx Z!
0[
0[!
0\
0\!
b10011 ]
b0 ]!
b0 ^!
0_
0_!
b0 `!
0a!
b0 b!
b0 c
b0 c!
b10011 d
0d!
b0 e!
b0 f!
b0 i!
b0 j!
b0 k!
b0 l!
b0 m!
b0 n
b0 n!
b0 o
0o!
b0 p
1p!
b0 q
b0 q!
0r
0r!
0s
b0 s!
0t
0t!
0u
b0 u!
0v
0w
b0 x
1x!
b0 y
b0 z
b10011 z!
b0 {
b0 {!
b0 |
b0 }
b0 ~
#20000
0!
0x!
#30000
1!
b11111 Y!
1x!
#40000
0!
0x!
#50000
1!
b11111 Y!
1x!
#60000
0!
0x!
#70000
1!
b11111 Y!
1x!
#80000
0!
0x!
#90000
1!
b11111 Y!
1x!
#100000
0!
1"
0)
b100 j
b0 m!
0o!
0p!
0x!
1y!
#110000
1!
b100 %
b1 2
bx <
b0 X
b0 f!
b100 i
b1 o
1x!
bx y
#120000
0!
b1000 j
0x!
#130000
1!
b1000 %
b100 /
b0 9!
b0 :!
b0 ;!
b0 <!
b0 =!
b1 >!
b0 ?!
b0 @!
0A!
0B!
0C!
0D!
0E!
0F!
b0 G!
bx L
bx Z!
bx `!
b100 c
b1000 i
1x!
#140000
0!
b1100 j
0x!
#150000
1!
b1100 %
b1000 /
b100 1
b0 9!
b0 :!
b0 ;!
b0 <!
b0 =!
b1 >!
b0 ?!
b0 @!
0A!
0B!
0C!
0D!
0E!
0F!
b0 G!
bx Z!
b1000 c
b1100 i
b100 n
1x!
#160000
0!
b10000 j
0x!
#170000
1!
b10000 %
b1100 /
b1000 1
b0 9!
b0 :!
b0 ;!
b0 <!
b0 =!
b1 >!
b0 ?!
b0 @!
0A!
0B!
0C!
0D!
0E!
0F!
b0 G!
bx Z!
b1100 c
b10000 i
b1000 n
1x!
#180000
0!
b10100 j
0x!
#190000
1!
b10100 %
b10000 /
b1100 1
b0 9!
b0 :!
b0 ;!
b0 <!
b0 =!
b1 >!
b0 ?!
b0 @!
0A!
0B!
0C!
0D!
0E!
0F!
b0 G!
bx Z!
b10000 c
b10100 i
b1100 n
1x!
#200000
0!
b11000 j
0x!
#210000
1!
b11000 %
b10100 /
b10000 1
b0 9!
b0 :!
b0 ;!
b0 <!
b0 =!
b1 >!
b0 ?!
b0 @!
0A!
0B!
0C!
0D!
0E!
0F!
b0 G!
bx Z!
b10100 c
b11000 i
b10000 n
1x!
#220000
0!
b11100 j
0x!
#230000
1!
b11100 %
b11000 /
b10100 1
b0 9!
b0 :!
b0 ;!
b0 <!
b0 =!
b1 >!
b0 ?!
b0 @!
0A!
0B!
0C!
0D!
0E!
0F!
b0 G!
bx Z!
b11000 c
b11100 i
b10100 n
1x!
#240000
0!
b100000 j
0x!
#250000
1!
b100000 %
b11100 /
b11000 1
b0 9!
b0 :!
b0 ;!
b0 <!
b0 =!
b1 >!
b0 ?!
b0 @!
0A!
0B!
0C!
0D!
0E!
0F!
b0 G!
bx Z!
b11100 c
b100000 i
b11000 n
1x!
#260000
0!
b100100 j
0x!
#270000
1!
b100100 %
b100000 /
b11100 1
b0 9!
b0 :!
b0 ;!
b0 <!
b0 =!
b1 >!
b0 ?!
b0 @!
0A!
0B!
0C!
0D!
0E!
0F!
b0 G!
bx Z!
b100000 c
b100100 i
b11100 n
1x!
#280000
0!
b101000 j
0x!
#290000
1!
b101000 %
b100100 /
b100000 1
b0 9!
b0 :!
b0 ;!
b0 <!
b0 =!
b1 >!
b0 ?!
b0 @!
0A!
0B!
0C!
0D!
0E!
0F!
b0 G!
bx Z!
b100100 c
b101000 i
b100000 n
1x!
#300000
0!
b101100 j
0x!
#310000
1!
b101100 %
b101000 /
b100100 1
b0 9!
b0 :!
b0 ;!
b0 <!
b0 =!
b1 >!
b0 ?!
b0 @!
0A!
0B!
0C!
0D!
0E!
0F!
b0 G!
bx Z!
b101000 c
b101100 i
b100100 n
1x!
#320000
0!
b110000 j
0x!
#330000
1!
b110000 %
b101100 /
b101000 1
b0 9!
b0 :!
b0 ;!
b0 <!
b0 =!
b1 >!
b0 ?!
b0 @!
0A!
0B!
0C!
0D!
0E!
0F!
b0 G!
bx Z!
b101100 c
b110000 i
b101000 n
1x!
#340000
0!
b110100 j
0x!
#350000
1!
b110100 %
b110000 /
b101100 1
b0 9!
b0 :!
b0 ;!
b0 <!
b0 =!
b1 >!
b0 ?!
b0 @!
0A!
0B!
0C!
0D!
0E!
0F!
b0 G!
bx Z!
b110000 c
b110100 i
b101100 n
1x!
#360000
0!
b111000 j
0x!
#370000
1!
b111000 %
b110100 /
b110000 1
b0 9!
b0 :!
b0 ;!
b0 <!
b0 =!
b1 >!
b0 ?!
b0 @!
0A!
0B!
0C!
0D!
0E!
0F!
b0 G!
bx Z!
b110100 c
b111000 i
b110000 n
1x!
#380000
0!
b111100 j
0x!
#390000
1!
b111100 %
b111000 /
b110100 1
b0 9!
b0 :!
b0 ;!
b0 <!
b0 =!
b1 >!
b0 ?!
b0 @!
0A!
0B!
0C!
0D!
0E!
0F!
b0 G!
bx Z!
b111000 c
b111100 i
b110100 n
1x!
#400000
0!
b1000000 j
0x!
#410000
1!
b100110000000000000001101111 #
b1000000 %
b0 %!
b111100 &!
b1001100 '!
b10 *!
b10 ,!
b111100 /
b100110000000000000001101111 0
b111000 1
11!
b10001000 3!
b0 9!
b0 :!
b0 ;!
b111100 <!
b1001100 =!
b10 >!
b0 ?!
b10 @!
0A!
0B!
0C!
0D!
0E!
1F!
b0 G!
b1101111 H!
b1001100 L!
b1000000 M!
b1000000 N!
b100110000000000000000000000 O!
b1001100 P!
b10001000 Z!
0[
b1101111 ]
b111100 c
b100110000000000000001101111 d
b1000000 i
b111000 n
1x!
b100110000000000000001101111 z!
#420000
0!
b1000100 j
0x!
#430000
1!
b110100001000000010111101110011 #
b0 #!
b1000100 %
b0 %!
b0 &!
b0 '!
1*
b0 *!
b0 ,!
b1000000 /
b0 0
b111100 1
01!
b10 2
bx 3!
b10 4
b0 9!
1:
b0 :!
b0 ;!
b10001000 <
b0 <!
b111100 =
b0 =!
b1001100 >
b0 >!
b0 ?!
b0 @!
0A!
0B!
0C!
0D!
0E!
0F!
b0 G!
b0 H!
b0 J!
b0 L!
b0 M!
b0 N!
b0 O!
b0 P!
b0 W
b0 X
bx Z!
0[
b0 ]
1^
b1000000 c
b0 d
b111100 e!
b100 f!
b1000000 g!
b1000100 i
b111100 i!
b100 j!
b1000000 k!
b100 l!
b111100 n
b10 o
b10 q
1w
1x!
b10001000 y
b111100 z
b110100001000000010111101110011 z!
b1001100 {
#440000
0!
b10001000 j
0x!
#450000
1!
b100000000000111110010011 #
b10001000 %
b1000000 &
1*
b1000100 /
b0 1
b0 2
b0 4
b0 9!
0:
b0 :!
b0 ;!
b0 <
b0 <!
b0 =
b0 =!
b0 >
b0 >!
b0 ?!
b0 @!
0A!
0B!
0C!
0D!
0E!
0F!
b0 G!
b1000000 H
b10001000 L
b0 W
bx Z!
0^
1_
b10001000 `!
b1000100 c
b1000000 c!
b0 d
b0 e!
b0 f!
b0 g!
b10001000 i
b0 i!
b0 j!
b0 k!
b0 l!
b1000000 m!
b0 n
b0 o
0o!
0p!
b0 q
0w
1x!
b0 y
b0 z
b100000000000111110010011 z!
b0 {
#460000
0!
b10001100 j
0x!
#470000
1!
b10010011 #
b1 #!
b10001100 %
b0 &
b0 (!
0*
b1 *!
b10001000 /
1/!
b10010011 0
b1 9!
b0 :!
b0 ;!
b0 <!
b0 =!
b1 >!
b0 ?!
b0 @!
0A!
0B!
0C!
1D!
0E!
0F!
b0 G!
b0 H
b10011 H!
b0 L
b1 M!
b100000000000 N!
b1000000 P
b1000000 T
bx Z!
0[
b10011 ]
0_
b0 `!
b10001000 c
b0 c!
b10010011 d
b0 e!
b0 f!
b10001100 i
b0 m!
0o!
0p!
b1000000 s!
1x!
b10010011 z!
#480000
0!
b10010000 j
0x!
#490000
1!
b100010011 #
b10 #!
b10010000 %
b0 (!
b10001100 /
b100010011 0
b10001000 1
b1 2
18
b10 9!
b0 :!
b0 ;!
bx <
b0 <!
b0 =!
b1 >!
b0 ?!
b0 @!
b1 A
0A!
0B!
0C!
1D!
0E!
0F!
b0 G!
b10 M!
b10 N!
b0 P
b0 T
b0 X
bx Z!
0[
b10001100 c
b100010011 d
b0 e!
b0 f!
b10010000 i
b10001000 n
b1 o
b0 s!
1u
1x!
bx y
b100010011 z!
b1 ~
#500000
0!
b10010100 j
0x!
#510000
1!
b110010011 #
b11 #!
b10010100 %
b10010000 /
b110010011 0
b10001100 1
b11 9!
b0 :!
b0 ;!
b0 <!
b0 =!
b1 >!
b0 ?!
b0 @!
b10 A
0A!
0B!
0C!
1D!
0E!
0F!
b0 G!
1J
b1 K
bx L
b11 M!
b100000000010 N!
b0 W
b0 X
bx Z!
0[
bx `!
1a!
b1 b!
b10010000 c
b110010011 d
b10010100 i
b10001100 n
1x!
b110010011 z!
b10 ~
#520000
0!
b10011000 j
0x!
#530000
1!
b1000010011 #
b100 #!
b10011000 %
b0 (!
b10010100 /
b1000010011 0
b10010000 1
b100 9!
b0 :!
b0 ;!
b0 <!
b0 =!
b1 >!
b0 ?!
b0 @!
b11 A
0A!
0B!
0C!
1D!
0E!
0F!
b0 G!
b10 K
b100 M!
b100 N!
1Q
b1 R
b1 S
1V
b0 W
b0 X
bx Z!
0[
b10 b!
b10010100 c
b1000010011 d
b10011000 i
b10010000 n
1t!
b1 u!
1x!
b1000010011 z!
b11 ~
#540000
0!
b10011100 j
0x!
#550000
1!
b1010010011 #
b101 #!
b10011100 %
b0 (!
b10011000 /
b1010010011 0
b10010100 1
b101 9!
b0 :!
b0 ;!
b0 <!
b0 =!
b1 >!
b0 ?!
b0 @!
b100 A
0A!
0B!
0C!
1D!
0E!
0F!
b0 G!
b11 K
b101 M!
b100000000100 N!
b10 R
b10 S
b0 W
b0 X
bx Z!
0[
b11 b!
b10011000 c
b1010010011 d
b10011100 i
b10010100 n
b10 u!
1x!
b1010010011 z!
b100 ~
#560000
0!
b10100000 j
0x!
#570000
1!
b1100010011 #
b110 #!
b10100000 %
b0 (!
b10011100 /
b1100010011 0
b10011000 1
b110 9!
b0 :!
b0 ;!
b0 <!
b0 =!
b1 >!
b0 ?!
b0 @!
b101 A
0A!
0B!
0C!
1D!
0E!
0F!
b0 G!
b100 K
b110 M!
b110 N!
b11 R
b11 S
b0 W
b0 X
bx Z!
0[
b100 b!
b10011100 c
b1100010011 d
b10100000 i
b10011000 n
b11 u!
1x!
b1100010011 z!
b101 ~
#580000
0!
b10100100 j
0x!
#590000
1!
b1110010011 #
b111 #!
b10100100 %
b0 (!
b10100000 /
b1110010011 0
b10011100 1
b111 9!
b0 :!
b0 ;!
b0 <!
b0 =!
b1 >!
b0 ?!
b0 @!
b110 A
0A!
0B!
0C!
1D!
0E!
0F!
b0 G!
b101 K
b111 M!
b100000000110 N!
b100 R
b100 S
b0 W
b0 X
bx Z!
0[
b101 b!
b10100000 c
b1110010011 d
b10100100 i
b10011100 n
b100 u!
1x!
b1110010011 z!
b110 ~
#600000
0!
b10101000 j
0x!
#610000
1!
b10000010011 #
b1000 #!
b10101000 %
b0 (!
b10100100 /
b10000010011 0
b10100000 1
b1000 9!
b0 :!
b0 ;!
b0 <!
b0 =!
b1 >!
b0 ?!
b0 @!
b111 A
0A!
0B!
0C!
1D!
0E!
0F!
b0 G!
b110 K
b1000 M!
b1000 N!
b101 R
b101 S
b0 W
b0 X
bx Z!
0[
b110 b!
b10100100 c
b10000010011 d
b10101000 i
b10100000 n
b101 u!
1x!
b10000010011 z!
b111 ~
#620000
0!
b10101100 j
0x!
#630000
1!
b10010010011 #
b1001 #!
b10101100 %
b0 (!
b10101000 /
b10010010011 0
b10100100 1
b1001 9!
b0 :!
b0 ;!
b0 <!
b0 =!
b1 >!
b0 ?!
b0 @!
b1000 A
0A!
0B!
0C!
1D!
0E!
0F!
b0 G!
b111 K
b1001 M!
b100000001000 N!
b110 R
b110 S
b0 W
b0 X
bx Z!
0[
b111 b!
b10101000 c
b10010010011 d
b10101100 i
b10100100 n
b110 u!
1x!
b10010010011 z!
b1000 ~
#640000
0!
b10110000 j
0x!
#650000
1!
b10100010011 #
b1010 #!
b10110000 %
b0 (!
b10101100 /
b10100010011 0
b10101000 1
b1010 9!
b0 :!
b0 ;!
b0 <!
b0 =!
b1 >!
b0 ?!
b0 @!
b1001 A
0A!
0B!
0C!
1D!
0E!
0F!
b0 G!
b1000 K
b1010 M!
b1010 N!
b111 R
b111 S
b0 W
b0 X
bx Z!
0[
b1000 b!
b10101100 c
b10100010011 d
b10110000 i
b10101000 n
b111 u!
1x!
b10100010011 z!
b1001 ~
#660000
0!
b10110100 j
0x!
