Test/test-results/riscvTests_auipc.vcd
$date
   Wed Jul 14 11:11:21 2021
$end
$version
  2020.2
$end
$timescale
  1ps
$end
$scope module riscvTests_tb $end
$var reg 1 v! Clk $end
$var reg 1 w! Reset_n $end
$var reg 32 x! mem_rd_data [31:0] $end
$var wire 32 $ mem_addr [31:0] $end
$var wire 32 y! mem_wr_data [31:0] $end
$var wire 1 & mem_wr_en $end
$var wire 1 ' mem_rst $end
$scope module UUT $end
$var wire 1 ! Clk $end
$var wire 1 " Reset_n $end
$var wire 32 # mem_rd_data [31:0] $end
$var wire 32 $ mem_addr [31:0] $end
$var wire 32 % mem_wr_data [31:0] $end
$var wire 1 & mem_wr_en $end
$var wire 1 ' mem_rst $end
$var wire 1 ( IF_ID_Flush $end
$var wire 1 ) EX_Flush $end
$var reg 1 * Stall $end
$var wire 2 + ForwardA [1:0] $end
$var wire 2 , ForwardB [1:0] $end
$var wire 32 - IF_PC [31:0] $end
$var wire 32 . IF_Instruction [31:0] $end
$var wire 32 / ID_PC [31:0] $end
$var wire 2 0 ID_ALU_source_sel [1:0] $end
$var wire 4 1 ID_ALU_op [3:0] $end
$var wire 2 2 ID_Branch_op [1:0] $end
$var wire 1 3 ID_Branch_flag $end
$var wire 1 4 ID_Mem_wr_en $end
$var wire 1 5 ID_Mem_rd_en $end
$var wire 1 6 ID_RegFile_wr_en $end
$var wire 1 7 ID_MemToReg $end
$var wire 1 8 ID_Jump $end
$var wire 3 9 ID_Mem_op [2:0] $end
$var wire 32 : ID_PC_dest [31:0] $end
$var wire 32 ; ID_Immediate_1 [31:0] $end
$var wire 32 < ID_Immediate_2 [31:0] $end
$var wire 32 = ID_Rs1_data [31:0] $end
$var wire 32 > ID_Rs2_data [31:0] $end
$var wire 5 ? ID_Rd_addr [4:0] $end
$var wire 5 @ ID_Rs1_addr [4:0] $end
$var wire 5 A ID_Rs2_addr [4:0] $end
$var wire 1 B EX_Mem_wr_en $end
$var wire 1 C EX_Mem_rd_en $end
$var wire 3 D EX_Mem_op [2:0] $end
$var wire 1 E EX_MemToReg $end
$var wire 32 F EX_ALU_result [31:0] $end
$var wire 32 G EX_Rs2_data [31:0] $end
$var wire 1 H EX_RegFile_wr_en $end
$var wire 5 I EX_Rd_addr [4:0] $end
$var wire 32 J EX_PC_Branch_dest [31:0] $end
$var wire 1 K EX_PC_Branch $end
$var wire 32 L MEM_dout [31:0] $end
$var wire 1 M MEM_MemToReg $end
$var wire 32 N MEM_ALU_result [31:0] $end
$var wire 1 O MEM_RegFile_wr_en $end
$var wire 5 P MEM_Rd_addr [4:0] $end
$var wire 5 Q WB_Rd_addr [4:0] $end
$var wire 32 R WB_Rd_data [31:0] $end
$var wire 1 S WB_Rd_wr_en $end
$var wire 1 T WB_RegFile_wr_en $end
$scope module FWD_inst $end
$var reg 2 U ForwardA [1:0] $end
$var reg 2 V ForwardB [1:0] $end
$var wire 2 0 ID_ALU_source_sel [1:0] $end
$var wire 5 @ ID_Rs1_addr [4:0] $end
$var wire 5 A ID_Rs2_addr [4:0] $end
$var wire 5 ? ID_Rd_addr [4:0] $end
$var wire 5 I EX_Rd_addr [4:0] $end
$var wire 5 P MEM_Rd_addr [4:0] $end
$var wire 1 H EX_RegFile_wr_en $end
$var wire 1 O MEM_RegFile_wr_en $end
$var parameter 32 W REG_DATA_WIDTH [31:0] $end
$var parameter 32 X REGFILE_ADDR_WIDTH [31:0] $end
$upscope $end
$scope module HD_inst $end
$var reg 1 Y Stall $end
$var reg 1 Z IF_ID_Flush $end
$var reg 1 [ EX_Flush $end
$var wire 32 . IF_Instruction [31:0] $end
$var wire 1 5 ID_Mem_rd_en $end
$var wire 5 ? ID_Rd_addr [4:0] $end
$var wire 1 K EX_PC_Branch $end
$var wire 1 8 ID_Jump $end
$var wire 7 \ opcode [6:0] $end
$var parameter 32 ] REG_DATA_WIDTH [31:0] $end
$var parameter 32 ^ REGFILE_ADDR_WIDTH [31:0] $end
$upscope $end
$scope module IF_inst $end
$var wire 1 ! Clk $end
$var wire 1 " Reset_n $end
$var wire 32 J EX_PC_Branch_dest [31:0] $end
$var wire 1 K EX_PC_Branch $end
$var wire 32 : ID_PC_dest [31:0] $end
$var wire 1 8 ID_Jump $end
$var wire 1 _ IF_Stall $end
$var wire 1 ( IF_Flush $end
$var wire 32 - IF_PC [31:0] $end
$var reg 32 ` IF_Instruction [31:0] $end
$var wire 32 a Instruction [31:0] $end
$var parameter 32 b REG_DATA_WIDTH [31:0] $end
$var parameter 32 c IMEM_ADDR_WIDTH [31:0] $end
$var parameter 32 d IMEM_DATA_DEPTH [31:0] $end
$scope module RV32I_PC $end
$var wire 1 ! Clk $end
$var wire 1 " Reset_n $end
$var wire 1 _ PC_Stall $end
$var wire 1 8 ID_Jump $end
$var wire 32 : ID_PC_dest [31:0] $end
$var wire 1 K EX_PC_Branch $end
$var wire 32 J EX_PC_Branch_dest [31:0] $end
$var reg 32 e PC_Out [31:0] $end
$var reg 32 f PC_Next [31:0] $end
$var parameter 32 g REG_DATA_WIDTH [31:0] $end
$var parameter 32 h IMEM_ADDR_WIDTH [31:0] $end
$upscope $end
$scope module RV32I_IMEM $end
$var wire 32 - IMEM_address [31:0] $end
$var reg 32 i Instruction [31:0] $end
$var parameter 32 j IMEM_ADDR_WIDTH [31:0] $end
$var parameter 32 k IMEM_DATA_DEPTH [31:0] $end
$scope begin Block67_9 $end
$var reg 32 l i $end
$upscope $end
$upscope $end
$upscope $end
$scope module ID_inst $end
$var wire 1 ! Clk $end
$var wire 1 " Reset_n $end
$var wire 32 - IF_PC [31:0] $end
$var wire 32 . IF_Instruction [31:0] $end
$var wire 1 m ID_Stall $end
$var wire 1 ( ID_Flush $end
$var wire 5 Q WB_Rd_addr [4:0] $end
$var wire 32 R WB_Rd_data [31:0] $end
$var wire 1 T WB_RegFile_wr_en $end
$var reg 32 n ID_PC [31:0] $end
$var reg 2 o ID_ALU_source_sel [1:0] $end
$var reg 4 p ID_ALU_op [3:0] $end
$var reg 2 q ID_Branch_op [1:0] $end
$var reg 1 r ID_Branch_flag $end
$var reg 1 s ID_Mem_wr_en $end
$var reg 1 t ID_Mem_rd_en $end
$var reg 1 u ID_RegFile_wr_en $end
$var reg 1 v ID_MemToReg $end
$var reg 1 w ID_Jump $end
$var reg 3 x ID_Mem_op [2:0] $end
$var reg 32 y ID_PC_dest [31:0] $end
$var reg 32 z ID_Immediate_1 [31:0] $end
$var reg 32 { ID_Immediate_2 [31:0] $end
$var reg 32 | ID_Rs1_data [31:0] $end
$var reg 32 } ID_Rs2_data [31:0] $end
$var reg 5 ~ ID_Rd_addr [4:0] $end
$var reg 5 !! ID_Rs1_addr [4:0] $end
$var reg 5 "! ID_Rs2_addr [4:0] $end
$var wire 5 #! Rd_addr [4:0] $end
$var wire 5 $! Rs1_addr [4:0] $end
$var wire 5 %! Rs2_addr [4:0] $end
$var wire 32 &! Immediate_1 [31:0] $end
$var wire 32 '! Immediate_2 [31:0] $end
$var wire 32 (! Rs1_data [31:0] $end
$var wire 32 )! Rs2_data [31:0] $end
$var wire 2 *! ALU_source_sel [1:0] $end
$var wire 4 +! ALU_op [3:0] $end
$var wire 2 ,! Branch_op [1:0] $end
$var wire 1 -! Branch_flag $end
$var wire 1 .! Mem_wr_en $end
$var wire 1 /! RegFile_wr_en $end
$var wire 1 0! MemToReg $end
$var wire 1 1! Jump $end
$var wire 3 2! Mem_op [2:0] $end
$var wire 32 3! Branch_dest [31:0] $end
$var wire 1 4! Mem_rd_en $end
$var parameter 32 5! REG_DATA_WIDTH [31:0] $end
$var parameter 32 6! REGFILE_ADDR_WIDTH [31:0] $end
$var parameter 32 7! REGFILE_DEPTH [31:0] $end
$var parameter 32 8! ALU_OP_WIDTH [31:0] $end
$scope module RV32I_CONTROL $end
$var wire 32 . IF_Instruction [31:0] $end
$var wire 32 - IF_PC [31:0] $end
$var reg 5 9! Rd_addr [4:0] $end
$var reg 5 :! Rs1_addr [4:0] $end
$var reg 5 ;! Rs2_addr [4:0] $end
$var reg 32 <! Immediate_1 [31:0] $end
$var reg 32 =! Immediate_2 [31:0] $end
$var reg 2 >! ALU_source_sel [1:0] $end
$var reg 4 ?! ALU_op [3:0] $end
$var reg 2 @! Branch_op [1:0] $end
$var reg 1 A! Branch_flag $end
$var reg 1 B! Mem_wr_en $end
$var reg 1 C! Mem_rd_en $end
$var reg 1 D! RegFile_wr_en $end
$var reg 1 E! MemToReg $end
$var reg 1 F! Jump $end
$var reg 3 G! Mem_op [2:0] $end
$var wire 7 H! OPCODE [6:0] $end
$var wire 5 I! RD [4:0] $end
$var wire 4 J! FUNCT3 [3:0] $end
$var wire 1 K! FUNCT7 $end
$var wire 32 L! IMM_I [31:0] $end
$var wire 32 M! IMM_S [31:0] $end
$var wire 32 N! IMM_B [31:0] $end
$var wire 32 O! IMM_U [31:0] $end
$var wire 32 P! IMM_J [31:0] $end
$var parameter 32 Q! REG_DATA_WIDTH [31:0] $end
$var parameter 32 R! REGFILE_ADDR_WIDTH [31:0] $end
$var parameter 32 S! REGFILE_DEPTH [31:0] $end
$var parameter 32 T! ALU_OP_WIDTH [31:0] $end
$upscope $end
$scope module RV32I_REGFILE $end
$var wire 1 ! Clk $end
$var wire 1 " Reset_n $end
$var wire 5 $! Rs1_addr [4:0] $end
$var wire 5 %! Rs2_addr [4:0] $end
$var wire 5 Q Rd_addr [4:0] $end
$var wire 32 R Rd_wr_data [31:0] $end
$var wire 1 T Rd_wr_en $end
$var wire 32 (! Rs1_data [31:0] $end
$var wire 32 )! Rs2_data [31:0] $end
$var parameter 32 U! REG_DATA_WIDTH [31:0] $end
$var parameter 32 V! REGFILE_ADDR_WIDTH [31:0] $end
$var parameter 32 W! REGFILE_DEPTH [31:0] $end
$scope begin Block66_14 $end
$var reg 32 X! i $end
$upscope $end
$scope begin Block73_16 $end
$var reg 32 Y! i $end
$upscope $end
$upscope $end
$scope module ID_BranchGen $end
$var wire 2 ,! Branch_op [1:0] $end
$var wire 32 - PC [31:0] $end
$var wire 32 (! RegData [31:0] $end
$var wire 32 '! Immediate [31:0] $end
$var reg 32 Z! Branch_dest [31:0] $end
$upscope $end
$upscope $end
$scope module EX_inst $end
$var wire 1 ! Clk $end
$var wire 1 " Reset_n $end
$var reg 1 [! EX_Mem_wr_en $end
$var reg 1 \! EX_Mem_rd_en $end
$var reg 3 ]! EX_Mem_op [2:0] $end
$var reg 32 ^! EX_Rs2_data [31:0] $end
$var reg 1 _! EX_MemToReg $end
$var reg 32 `! EX_ALU_result [31:0] $end
$var reg 32 a! EX_PC_Branch_dest [31:0] $end
$var reg 1 b! EX_PC_Branch $end
$var reg 1 c! EX_RegFile_wr_en $end
$var reg 5 d! EX_Rd_addr [4:0] $end
$var wire 1 ) EX_Flush $end
$var wire 1 4 ID_Mem_wr_en $end
$var wire 1 5 ID_Mem_rd_en $end
$var wire 3 9 ID_Mem_op [2:0] $end
$var wire 1 7 ID_MemToReg $end
$var wire 32 : ID_PC_dest [31:0] $end
$var wire 2 2 ID_Branch_op [1:0] $end
$var wire 1 3 ID_Branch_flag $end
$var wire 1 8 ID_Jump $end
$var wire 2 + ForwardA [1:0] $end
$var wire 2 , ForwardB [1:0] $end
$var wire 32 R WB_Rd_data [31:0] $end
$var wire 2 0 ID_ALU_source_sel [1:0] $end
$var wire 4 1 ID_ALU_op [3:0] $end
$var wire 1 6 ID_RegFile_wr_en $end
$var wire 5 ? ID_Rd_addr [4:0] $end
$var wire 32 / ID_PC [31:0] $end
$var wire 32 = ID_Rs1_data [31:0] $end
$var wire 32 > ID_Rs2_data [31:0] $end
$var wire 32 ; ID_Immediate_1 [31:0] $end
$var wire 32 < ID_Immediate_2 [31:0] $end
$var reg 32 e! ALU_op1 [31:0] $end
$var reg 32 f! ALU_op2 [31:0] $end
$var wire 32 g! ALU_result [31:0] $end
$var reg 1 h! PC_source_sel $end
$scope module ALU_inst $end
$var wire 4 1 ALU_op [3:0] $end
$var wire 32 i! ALU_op1 [31:0] $end
$var wire 32 j! ALU_op2 [31:0] $end
$var reg 32 k! ALU_result [31:0] $end
$var wire 5 l! shift [4:0] $end
$upscope $end
$upscope $end
$scope module MEM_inst $end
$var wire 1 ! Clk $end
$var wire 1 " Reset_n $end
$var reg 32 m! mem_addr [31:0] $end
$var reg 32 n! mem_wr_data [31:0] $end
$var reg 1 o! mem_wr_en $end
$var reg 1 p! mem_rst $end
$var wire 32 # mem_rd_data [31:0] $end
$var reg 32 q! MEM_dout [31:0] $end
$var reg 1 r! MEM_MemToReg $end
$var reg 32 s! MEM_ALU_result [31:0] $end
$var reg 1 t! MEM_RegFile_wr_en $end
$var reg 5 u! MEM_Rd_addr [4:0] $end
$var wire 1 B EX_Mem_wr_en $end
$var wire 1 C EX_Mem_rd_en $end
$var wire 3 D EX_Mem_op [2:0] $end
$var wire 1 E EX_MemToReg $end
$var wire 32 F EX_ALU_result [31:0] $end
$var wire 32 G EX_Rs2_data [31:0] $end
$var wire 1 H EX_RegFile_wr_en $end
$var wire 5 I EX_Rd_addr [4:0] $end
$upscope $end
$scope module WB_inst $end
$var wire 5 Q WB_Rd_addr [4:0] $end
$var wire 32 R WB_Rd_data [31:0] $end
$var wire 1 T WB_RegFile_wr_en $end
$var wire 5 P MEM_Rd_addr [4:0] $end
$var wire 32 L MEM_dout [31:0] $end
$var wire 32 N MEM_ALU_result [31:0] $end
$var wire 1 M MEM_MemToReg $end
$var wire 1 O MEM_RegFile_wr_en $end
$upscope $end
$upscope $end
$upscope $end
$enddefinitions $end
#0
$dumpvars
0!
bx !!
0"
bx "!
b0 #
b0 #!
bx $
b0 $!
b0 %
b0 %!
x&
b0 &!
1'
b0 '!
0(
bx (!
0)
bx )!
0*
b1 *!
b0 +
b0 +!
b0 ,
b0 ,!
b0 -
0-!
b10011 .
0.!
bx /
0/!
bx 0
00!
bx 1
01!
bx 2
b0 2!
x3
bx 3!
x4
04!
x5
b100000 5!
x6
b101 6!
x7
b100000 7!
x8
b100 8!
bx 9
b0 9!
bx :
b0 :!
bx ;
b0 ;!
bx <
b0 <!
bx =
b0 =!
bx >
b1 >!
bx ?
b0 ?!
bx @
b0 @!
bx A
0A!
xB
0B!
xC
0C!
bx D
0D!
xE
0E!
bx F
0F!
bx G
b0 G!
xH
b10011 H!
bx I
bz I!
bx J
b0 J!
xK
0K!
b0 L
b0 L!
xM
b0 M!
bx N
b0 N!
xO
b0 O!
bx P
b0 P!
bx Q
b100000 Q!
bx R
b101 R!
zS
b100000 S!
xT
b100 T!
b0 U
b100000 U!
b0 V
b101 V!
b100000 W
b100000 W!
b101 X
b100000 X!
0Y
b0 Y!
0Z
bx Z!
0[
x[!
b10011 \
x\!
b100000 ]
bx ]!
b101 ^
bx ^!
0_
x_!
b10011 `
bx `!
b10011 a
bx a!
b100000 b
xb!
b1010 c
xc!
b10000000000 d
bx d!
b0 e
bx e!
b0 f
bx f!
b100000 g
bx g!
b1010 h
xh!
b10011 i
bx i!
b100000 j
bx j!
b100000000000 k
bx k!
b1000000000 l
bx l!
0m
bx m!
bx n
b0 n!
bx o
xo!
bx p
1p!
bx q
b0 q!
xr
xr!
xs
bx s!
xt
xt!
xu
bx u!
xv
0v!
xw
0w!
bx x
b0 x!
bx y
bz y!
bx z
bx {
bx |
bx }
bx ~
$end
#10000
1!
b0 !!
b0 "!
b0 $
0&
b0 (!
b0 )!
b0 /
b0 0
b0 1
b0 2
03
04
05
06
07
08
b0 9
b0 :
b0 ;
b0 <
b0 =
b0 >
b0 ?
b0 @
b0 A
0B
0C
b0 D
0E
b0 F
b0 G
0H
b0 I
b0 J
0K
0M
b0 N
0O
b0 P
b0 Q
b0 R
0T
b0 U
b0 V
0Y
b100000 Y!
0Z
bx Z!
0[
0[!
0\!
b0 ]!
b0 ^!
0_!
b0 `!
b0 a!
0b!
0c!
b0 d!
b0 e!
b0 f!
b0 g!
b0 i!
b0 j!
b0 k!
b0 l!
b0 m!
b0 n
b0 n!
b0 o
0o!
b0 p
1p!
b0 q
b0 q!
0r
0r!
0s
b0 s!
0t
0t!
0u
b0 u!
0v
1v!
0w
b0 x
b0 y
b0 z
b0 {
b0 |
b0 }
b0 ~
#20000
0!
0v!
#30000
1!
b100000 Y!
1v!
#40000
0!
0v!
#50000
1!
b100000 Y!
1v!
#60000
0!
0v!
#70000
1!
b100000 Y!
1v!
#80000
0!
0v!
#90000
1!
b100000 Y!
1v!
#100000
0!
1"
0'
b100 f
b0 m!
0o!
0p!
0v!
1w!
#110000
1!
b100 -
b1 0
b0 9!
bx :
b0 :!
b0 ;!
b0 <!
b0 =!
b1 >!
b0 ?!
b0 @!
0A!
0B!
0C!
0D!
0E!
0F!
b0 G!
b0 V
bx Z!
b100 e
b0 f!
b10011 i
b1 o
1v!
bx y
#120000
0!
b1000 f
0v!
#130000
1!
b1000 -
b100 /
b0 9!
b0 :!
b0 ;!
b0 <!
b0 =!
b1 >!
b0 ?!
b0 @!
0A!
0B!
0C!
0D!
0E!
0F!
b0 G!
bx J
bx Z!
bx a!
b1000 e
b10011 i
b100 n
1v!
#140000
0!
b1100 f
0v!
#150000
1!
b1100 -
b1000 /
b0 9!
b0 :!
b0 ;!
b0 <!
b0 =!
b1 >!
b0 ?!
b0 @!
0A!
0B!
0C!
0D!
0E!
0F!
b0 G!
bx Z!
b1100 e
b10011 i
b1000 n
1v!
#160000
0!
b10000 f
0v!
#170000
1!
b10000 -
b1100 /
b0 9!
b0 :!
b0 ;!
b0 <!
b0 =!
b1 >!
b0 ?!
b0 @!
0A!
0B!
0C!
0D!
0E!
0F!
b0 G!
bx Z!
b10000 e
b10011 i
b1100 n
1v!
#180000
0!
b10100 f
0v!
#190000
1!
b10100 -
b10000 /
b0 9!
b0 :!
b0 ;!
b0 <!
b0 =!
b1 >!
b0 ?!
b0 @!
0A!
0B!
0C!
0D!
0E!
0F!
b0 G!
bx Z!
b10100 e
b10011 i
b10000 n
1v!
#200000
0!
b11000 f
0v!
#210000
1!
b11000 -
b10100 /
b0 9!
b0 :!
b0 ;!
b0 <!
b0 =!
b1 >!
b0 ?!
b0 @!
0A!
0B!
0C!
0D!
0E!
0F!
b0 G!
bx Z!
b11000 e
b10011 i
b10100 n
1v!
#220000
0!
b11100 f
0v!
#230000
1!
b11100 -
b11000 /
b0 9!
b0 :!
b0 ;!
b0 <!
b0 =!
b1 >!
b0 ?!
b0 @!
0A!
0B!
0C!
0D!
0E!
0F!
b0 G!
bx Z!
b11100 e
b10011 i
b11000 n
1v!
#240000
0!
b100000 f
0v!
#250000
1!
b100000 -
b11100 /
b0 9!
b0 :!
b0 ;!
b0 <!
b0 =!
b1 >!
b0 ?!
b0 @!
0A!
0B!
0C!
0D!
0E!
0F!
b0 G!
bx Z!
b100000 e
b10011 i
b11100 n
1v!
#260000
0!
b100100 f
0v!
#270000
1!
b100100 -
b100000 /
b0 9!
b0 :!
b0 ;!
b0 <!
b0 =!
b1 >!
b0 ?!
b0 @!
0A!
0B!
0C!
0D!
0E!
0F!
b0 G!
bx Z!
b100100 e
b10011 i
b100000 n
1v!
#280000
0!
b101000 f
0v!
#290000
1!
b101000 -
b100100 /
b0 9!
b0 :!
b0 ;!
b0 <!
b0 =!
b1 >!
b0 ?!
b0 @!
0A!
0B!
0C!
0D!
0E!
0F!
b0 G!
bx Z!
b101000 e
b10011 i
b100100 n
1v!
#300000
0!
b101100 f
0v!
#310000
1!
b101100 -
b101000 /
b0 9!
b0 :!
b0 ;!
b0 <!
b0 =!
b1 >!
b0 ?!
b0 @!
0A!
0B!
0C!
0D!
0E!
0F!
b0 G!
bx Z!
b101100 e
b10011 i
b101000 n
1v!
#320000
0!
b110000 f
0v!
#330000
1!
b110000 -
b101100 /
b0 9!
b0 :!
b0 ;!
b0 <!
b0 =!
b1 >!
b0 ?!
b0 @!
0A!
0B!
0C!
0D!
0E!
0F!
b0 G!
bx Z!
b110000 e
b10011 i
b101100 n
1v!
#340000
0!
b110100 f
0v!
#350000
1!
b110100 -
b110000 /
b0 9!
b0 :!
b0 ;!
b0 <!
b0 =!
b1 >!
b0 ?!
b0 @!
0A!
0B!
0C!
0D!
0E!
0F!
b0 G!
bx Z!
b110100 e
b10011 i
b110000 n
1v!
#360000
0!
b111000 f
0v!
#370000
1!
b111000 -
b110100 /
b0 9!
b0 :!
b0 ;!
b0 <!
b0 =!
b1 >!
b0 ?!
b0 @!
0A!
0B!
0C!
0D!
0E!
0F!
b0 G!
bx Z!
b111000 e
b10011 i
b110100 n
1v!
#380000
0!
b111100 f
0v!
#390000
1!
b0 %!
b111100 &!
b1001100 '!
b10 *!
b10 ,!
b111100 -
b100110000000000000001101111 .
b111000 /
11!
b10001000 3!
b0 9!
b0 :!
b0 ;!
b111100 <!
b1001100 =!
b10 >!
b0 ?!
b10 @!
0A!
0B!
0C!
0D!
0E!
1F!
b0 G!
b1101111 H!
b1001100 L!
b1000000 M!
b1000000 N!
b100110000000000000000000000 O!
b1001100 P!
0Y
b10001000 Z!
b1101111 \
b100110000000000000001101111 `
b100110000000000000001101111 a
b111100 e
b100110000000000000001101111 i
b111000 n
1v!
#400000
0!
b1000000 f
0v!
#410000
1!
b0 %!
b0 &!
b0 '!
1(
b0 *!
b0 ,!
b1000000 -
b0 .
b111100 /
b10 0
01!
b10 2
bx 3!
18
b0 9!
b10001000 :
b0 :!
b111100 ;
b0 ;!
b1001100 <
b0 <!
b0 =!
b0 >!
b0 ?!
b0 @!
0A!
0B!
0C!
0D!
0E!
0F!
b0 G!
b0 H!
b0 L!
b0 M!
b0 N!
b0 O!
b0 P!
b0 U
b0 V
0Y
1Z
bx Z!
b0 \
b0 `
b110100001000000010111101110011 a
b1000000 e
b111100 e!
b100 f!
b1000000 g!
b110100001000000010111101110011 i
b111100 i!
b100 j!
b1000000 k!
b100 l!
b111100 n
b10 o
b10 q
1v!
1w
b10001000 y
b111100 z
b1001100 {
#420000
0!
b10001000 f
0v!
#430000
1!
b1 #!
b1000000 $
0(
b1 *!
b10001000 -
b10010011 .
b0 /
1/!
b0 0
b0 2
08
b1 9!
b0 :
b0 :!
b0 ;
b0 ;!
b0 <
b0 <!
b0 =!
b1 >!
b0 ?!
b0 @!
0A!
0B!
0C!
1D!
0E!
b1000000 F
0F!
b0 G!
b10011 H!
b10001000 J
b1 M!
b100000000000 N!
b0 U
0Y
0Z
bx Z!
b10011 \
b10010011 `
b1000000 `!
b10010011 a
b10001000 a!
b10001000 e
b0 e!
b0 f!
b0 g!
b10010011 i
b0 i!
b0 j!
b0 k!
b0 l!
b1000000 m!
b0 n
b0 o
0o!
0p!
b0 q
1v!
0w
b0 y
b0 z
b0 {
#440000
0!
b10001100 f
0v!
#450000
1!
b10 #!
b0 $
b0 (!
b10001100 -
b100010011 .
b10001000 /
b1 0
16
b10 9!
bx :
b0 :!
b0 ;!
b0 <!
b0 =!
b1 >!
b1 ?
b0 ?!
b0 @!
0A!
0B!
0C!
1D!
0E!
b0 F
0F!
b0 G!
b0 J
b10 M!
b1000000 N
b10 N!
b1000000 R
b0 V
0Y
bx Z!
b100010011 `
b0 `!
b100010011 a
b0 a!
b10001100 e
b0 e!
b0 f!
b100010011 i
b0 m!
b10001000 n
b1 o
0o!
0p!
b1000000 s!
1u
1v!
bx y
b1 ~
#460000
0!
b10010000 f
0v!
#470000
1!
b11 #!
b0 (!
b10010000 -
b110010011 .
b10001100 /
b11 9!
b0 :!
b0 ;!
b0 <!
b0 =!
b1 >!
b10 ?
b0 ?!
b0 @!
0A!
0B!
0C!
1D!
0E!
0F!
b0 G!
1H
b1 I
bx J
b11 M!
b0 N
b100000000010 N!
b0 R
b0 U
b0 V
0Y
bx Z!
b110010011 `
b110010011 a
bx a!
1c!
b1 d!
b10010000 e
b0 e!
b0 f!
b110010011 i
b10001100 n
b0 s!
1v!
b10 ~
#480000
0!
b10010100 f
0v!
#490000
1!
b100 #!
b0 (!
b10010100 -
b1000010011 .
b10010000 /
b100 9!
b0 :!
b0 ;!
b0 <!
b0 =!
b1 >!
b11 ?
b0 ?!
b0 @!
0A!
0B!
0C!
1D!
0E!
0F!
b0 G!
b10 I
b100 M!
b100 N!
1O
b1 P
b1 Q
1T
b0 U
b0 V
0Y
bx Z!
b1000010011 `
b1000010011 a
b10 d!
b10010100 e
b1000010011 i
b10010000 n
1t!
b1 u!
1v!
b11 ~
#500000
0!
b10011000 f
0v!
#510000
1!
b101 #!
b0 (!
b10011000 -
b1010010011 .
b10010100 /
b101 9!
b0 :!
b0 ;!
b0 <!
b0 =!
b1 >!
b100 ?
b0 ?!
b0 @!
0A!
0B!
0C!
1D!
0E!
0F!
b0 G!
b11 I
b101 M!
b100000000100 N!
b10 P
b10 Q
b0 U
b0 V
0Y
bx Z!
b1010010011 `
b1010010011 a
b11 d!
b10011000 e
b1010010011 i
b10010100 n
b10 u!
1v!
b100 ~
#520000
0!
b10011100 f
0v!
#530000
1!
b110 #!
b0 (!
b10011100 -
b1100010011 .
b10011000 /
b110 9!
b0 :!
b0 ;!
b0 <!
b0 =!
b1 >!
b101 ?
b0 ?!
b0 @!
0A!
0B!
0C!
1D!
0E!
0F!
b0 G!
b100 I
b110 M!
b110 N!
b11 P
b11 Q
b0 U
b0 V
0Y
bx Z!
b1100010011 `
b1100010011 a
b100 d!
b10011100 e
b1100010011 i
b10011000 n
b11 u!
1v!
b101 ~
#540000
0!
b10100000 f
0v!
#550000
1!
b111 #!
b0 (!
b10100000 -
b1110010011 .
b10011100 /
b111 9!
b0 :!
b0 ;!
b0 <!
b0 =!
b1 >!
b110 ?
b0 ?!
b0 @!
0A!
0B!
0C!
1D!
0E!
0F!
b0 G!
b101 I
b111 M!
b100000000110 N!
b100 P
b100 Q
b0 U
b0 V
0Y
bx Z!
b1110010011 `
b1110010011 a
b101 d!
b10100000 e
b1110010011 i
b10011100 n
b100 u!
1v!
b110 ~
#560000
0!
b10100100 f
0v!
#570000
1!
b1000 #!
b0 (!
b10100100 -
b10000010011 .
b10100000 /
b1000 9!
b0 :!
b0 ;!
b0 <!
b0 =!
b1 >!
b111 ?
b0 ?!
b0 @!
0A!
0B!
0C!
1D!
0E!
0F!
b0 G!
b110 I
b1000 M!
b1000 N!
b101 P
b101 Q
b0 U
b0 V
0Y
bx Z!
b10000010011 `
b10000010011 a
b110 d!
b10100100 e
b10000010011 i
b10100000 n
b101 u!
1v!
b111 ~
#580000
0!
b10101000 f
0v!
#590000
1!
b1001 #!
b0 (!
b10101000 -
b10010010011 .
b10100100 /
b1001 9!
b0 :!
b0 ;!
b0 <!
b0 =!
b1 >!
b1000 ?
b0 ?!
b0 @!
0A!
0B!
0C!
1D!
0E!
0F!
b0 G!
b111 I
b1001 M!
b100000001000 N!
b110 P
b110 Q
b0 U
b0 V
0Y
bx Z!
b10010010011 `
b10010010011 a
b111 d!
b10101000 e
b10010010011 i
b10100100 n
b110 u!
1v!
b1000 ~
#600000
0!
b10101100 f
0v!
#610000
1!
b1010 #!
b0 (!
b10101100 -
b10100010011 .
b10101000 /
b1010 9!
b0 :!
b0 ;!
b0 <!
b0 =!
b1 >!
b1001 ?
b0 ?!
b0 @!
0A!
0B!
0C!
1D!
0E!
0F!
b0 G!
b1000 I
b1010 M!
b1010 N!
b111 P
b111 Q
b0 U
b0 V
0Y
bx Z!
b10100010011 `
b10100010011 a
b1000 d!
b10101100 e
b10100010011 i
b10101000 n
b111 u!
1v!
b1001 ~
#620000
0!
b10110000 f
0v!
#630000
1!
b1011 #!
b0 (!
b10110000 -
b10110010011 .
b10101100 /
b1011 9!
b0 :!
b0 ;!
b0 <!
b0 =!
b1 >!
b1010 ?
b0 ?!
b0 @!
0A!
0B!
0C!
1D!
0E!
0F!
b0 G!
b1001 I
b1011 M!
b100000001010 N!
b1000 P
b1000 Q
b0 U
b0 V
0Y
bx Z!
b10110010011 `
b10110010011 a
b1001 d!
b10110000 e
b10110010011 i
b10101100 n
b1000 u!
1v!
b1010 ~
#640000
0!
b10110100 f
0v!
#650000
1!
b1100 #!
b0 (!
b10110100 -
b11000010011 .
b10110000 /
b1100 9!
b0 :!
b0 ;!
b0 <!
b0 =!
b1 >!
b1011 ?
b0 ?!
b0 @!
0A!
0B!
0C!
1D!
0E!
0F!
b0 G!
b1010 I
b1100 M!
b1100 N!
b1001 P
b1001 Q
b0 U
b0 V
0Y
bx Z!
b11000010011 `
b11000010011 a
b1010 d!
b10110100 e
b11000010011 i
b10110000 n
b1001 u!
1v!
b1011 ~
#660000
0!
b10111000 f
0v!
#670000
1!
b1101 #!
b0 (!
b10111000 -
b11010010011 .
b10110100 /
b1101 9!
b0 :!
b0 ;!
b0 <!
b0 =!
b1 >!
b1100 ?
b0 ?!
b0 @!
0A!
0B!
0C!
1D!
0E!
0F!
b0 G!
b1011 I
b1101 M!
b100000001100 N!
b1010 P
b1010 Q
b0 U
b0 V
0Y
bx Z!
b11010010011 `
b11010010011 a
b1011 d!
b10111000 e
b11010010011 i
b10110100 n
b1010 u!
1v!
b1100 ~
#680000
0!
b10111100 f
0v!
#690000
1!
b1110 #!
b0 (!
b10111100 -
b11100010011 .
b10111000 /
b1110 9!
b0 :!
b0 ;!
b0 <!
b0 =!
b1 >!
b1101 ?
b0 ?!
b0 @!
0A!
0B!
0C!
1D!
0E!
0F!
b0 G!
b1100 I
b1110 M!
b1110 N!
b1011 P
b1011 Q
b0 U
b0 V
0Y
bx Z!
b11100010011 `
b11100010011 a
b1100 d!
b10111100 e
b11100010011 i
b10111000 n
b1011 u!
1v!
b1101 ~
#700000
0!
b11000000 f
0v!
