Test/test-results/riscvTest_add.vcd
$date
   Tue Jul 13 12:24:57 2021
$end
$version
  2020.2
$end
$timescale
  1ps
$end
$scope module riscvTests_tb $end
$var reg 1 v! Clk $end
$var reg 1 w! Reset_n $end
$var reg 32 x! mem_rd_data [31:0] $end
$var wire 32 $ mem_addr [31:0] $end
$var wire 32 y! mem_wr_data [31:0] $end
$var wire 1 & mem_wr_en $end
$var wire 1 ' mem_rst $end
$var reg 32 z! instruction [31:0] $end
$var reg 32 {! instruction1 [31:0] $end
$var reg 32 |! pc [31:0] $end
$var reg 4 }! checker_cycles [3:0] $end
$var reg 5 ~! checker_rd1 [4:0] $end
$var reg 5 !" checker_rd2 [4:0] $end
$var wire 32 "" regfile_rd1 [31:0] $end
$var wire 32 #" regfile_rd2 [31:0] $end
$var reg 32 $" m $end
$var reg 32 %" k $end
$var reg 32 &" expected $end
$var reg 32 '" passed_cnt $end
$var reg 32 (" failed_cnt $end
$scope module UUT $end
$var wire 1 ! Clk $end
$var wire 1 " Reset_n $end
$var wire 32 # mem_rd_data [31:0] $end
$var wire 32 $ mem_addr [31:0] $end
$var wire 32 % mem_wr_data [31:0] $end
$var wire 1 & mem_wr_en $end
$var wire 1 ' mem_rst $end
$var wire 1 ( IF_ID_Flush $end
$var wire 1 ) EX_Flush $end
$var reg 1 * Stall $end
$var wire 2 + ForwardA [1:0] $end
$var wire 2 , ForwardB [1:0] $end
$var wire 32 - IF_PC [31:0] $end
$var wire 32 . IF_Instruction [31:0] $end
$var wire 32 / ID_PC [31:0] $end
$var wire 2 0 ID_ALU_source_sel [1:0] $end
$var wire 4 1 ID_ALU_op [3:0] $end
$var wire 2 2 ID_Branch_op [1:0] $end
$var wire 1 3 ID_Branch_flag $end
$var wire 1 4 ID_Mem_wr_en $end
$var wire 1 5 ID_Mem_rd_en $end
$var wire 1 6 ID_RegFile_wr_en $end
$var wire 1 7 ID_MemToReg $end
$var wire 1 8 ID_Jump $end
$var wire 3 9 ID_Mem_op [2:0] $end
$var wire 32 : ID_PC_dest [31:0] $end
$var wire 32 ; ID_Immediate_1 [31:0] $end
$var wire 32 < ID_Immediate_2 [31:0] $end
$var wire 32 = ID_Rs1_data [31:0] $end
$var wire 32 > ID_Rs2_data [31:0] $end
$var wire 5 ? ID_Rd_addr [4:0] $end
$var wire 5 @ ID_Rs1_addr [4:0] $end
$var wire 5 A ID_Rs2_addr [4:0] $end
$var wire 1 B EX_Mem_wr_en $end
$var wire 1 C EX_Mem_rd_en $end
$var wire 3 D EX_Mem_op [2:0] $end
$var wire 1 E EX_MemToReg $end
$var wire 32 F EX_ALU_result [31:0] $end
$var wire 32 G EX_Rs2_data [31:0] $end
$var wire 1 H EX_RegFile_wr_en $end
$var wire 5 I EX_Rd_addr [4:0] $end
$var wire 32 J EX_PC_Branch_dest [31:0] $end
$var wire 1 K EX_PC_Branch $end
$var wire 32 L MEM_dout [31:0] $end
$var wire 1 M MEM_MemToReg $end
$var wire 32 N MEM_ALU_result [31:0] $end
$var wire 1 O MEM_RegFile_wr_en $end
$var wire 5 P MEM_Rd_addr [4:0] $end
$var wire 5 Q WB_Rd_addr [4:0] $end
$var wire 32 R WB_Rd_data [31:0] $end
$var wire 1 S WB_Rd_wr_en $end
$var wire 1 T WB_RegFile_wr_en $end
$scope module FWD_inst $end
$var reg 2 U ForwardA [1:0] $end
$var reg 2 V ForwardB [1:0] $end
$var wire 2 0 ID_ALU_source_sel [1:0] $end
$var wire 5 @ ID_Rs1_addr [4:0] $end
$var wire 5 A ID_Rs2_addr [4:0] $end
$var wire 5 ? ID_Rd_addr [4:0] $end
$var wire 5 I EX_Rd_addr [4:0] $end
$var wire 5 P MEM_Rd_addr [4:0] $end
$var wire 1 H EX_RegFile_wr_en $end
$var wire 1 O MEM_RegFile_wr_en $end
$var parameter 32 W REG_DATA_WIDTH [31:0] $end
$var parameter 32 X REGFILE_ADDR_WIDTH [31:0] $end
$upscope $end
$scope module HD_inst $end
$var reg 1 Y Stall $end
$var reg 1 Z IF_ID_Flush $end
$var reg 1 [ EX_Flush $end
$var wire 32 . IF_Instruction [31:0] $end
$var wire 1 5 ID_Mem_rd_en $end
$var wire 5 ? ID_Rd_addr [4:0] $end
$var wire 1 K EX_PC_Branch $end
$var wire 1 8 ID_Jump $end
$var wire 7 \ opcode [6:0] $end
$var parameter 32 ] REG_DATA_WIDTH [31:0] $end
$var parameter 32 ^ REGFILE_ADDR_WIDTH [31:0] $end
$upscope $end
$scope module IF_inst $end
$var wire 1 ! Clk $end
$var wire 1 " Reset_n $end
$var wire 32 J EX_PC_Branch_dest [31:0] $end
$var wire 1 K EX_PC_Branch $end
$var wire 32 : ID_PC_dest [31:0] $end
$var wire 1 8 ID_Jump $end
$var wire 1 _ IF_Stall $end
$var wire 1 ( IF_Flush $end
$var wire 32 - IF_PC [31:0] $end
$var reg 32 ` IF_Instruction [31:0] $end
$var wire 32 a Instruction [31:0] $end
$var parameter 32 b REG_DATA_WIDTH [31:0] $end
$var parameter 32 c IMEM_ADDR_WIDTH [31:0] $end
$var parameter 32 d IMEM_DATA_DEPTH [31:0] $end
$scope module RV32I_PC $end
$var wire 1 ! Clk $end
$var wire 1 " Reset_n $end
$var wire 1 _ PC_Stall $end
$var wire 1 8 ID_Jump $end
$var wire 32 : ID_PC_dest [31:0] $end
$var wire 1 K EX_PC_Branch $end
$var wire 32 J EX_PC_Branch_dest [31:0] $end
$var reg 32 H! PC_Out [31:0] $end
$var reg 32 I! PC_Next [31:0] $end
$var parameter 32 J! REG_DATA_WIDTH [31:0] $end
$var parameter 32 K! IMEM_ADDR_WIDTH [31:0] $end
$upscope $end
$scope module RV32I_IMEM $end
$var wire 32 - IMEM_address [31:0] $end
$var reg 32 L! Instruction [31:0] $end
$var parameter 32 M! IMEM_ADDR_WIDTH [31:0] $end
$var parameter 32 N! IMEM_DATA_DEPTH [31:0] $end
$scope begin Block58_9 $end
$var reg 32 O! i $end
$upscope $end
$upscope $end
$upscope $end
$scope module ID_inst $end
$var wire 1 ! Clk $end
$var wire 1 " Reset_n $end
$var wire 32 - IF_PC [31:0] $end
$var wire 32 . IF_Instruction [31:0] $end
$var wire 1 e ID_Stall $end
$var wire 1 ( ID_Flush $end
$var wire 5 Q WB_Rd_addr [4:0] $end
$var wire 32 R WB_Rd_data [31:0] $end
$var wire 1 T WB_RegFile_wr_en $end
$var reg 32 f ID_PC [31:0] $end
$var reg 2 g ID_ALU_source_sel [1:0] $end
$var reg 4 h ID_ALU_op [3:0] $end
$var reg 2 i ID_Branch_op [1:0] $end
$var reg 1 j ID_Branch_flag $end
$var reg 1 k ID_Mem_wr_en $end
$var reg 1 l ID_Mem_rd_en $end
$var reg 1 m ID_RegFile_wr_en $end
$var reg 1 n ID_MemToReg $end
$var reg 1 o ID_Jump $end
$var reg 3 p ID_Mem_op [2:0] $end
$var reg 32 q ID_PC_dest [31:0] $end
$var reg 32 r ID_Immediate_1 [31:0] $end
$var reg 32 s ID_Immediate_2 [31:0] $end
$var reg 32 t ID_Rs1_data [31:0] $end
$var reg 32 u ID_Rs2_data [31:0] $end
$var reg 5 v ID_Rd_addr [4:0] $end
$var reg 5 w ID_Rs1_addr [4:0] $end
$var reg 5 x ID_Rs2_addr [4:0] $end
$var wire 5 y Rd_addr [4:0] $end
$var wire 5 z Rs1_addr [4:0] $end
$var wire 5 { Rs2_addr [4:0] $end
$var wire 32 | Immediate_1 [31:0] $end
$var wire 32 } Immediate_2 [31:0] $end
$var wire 32 ~ Rs1_data [31:0] $end
$var wire 32 !! Rs2_data [31:0] $end
$var wire 2 "! ALU_source_sel [1:0] $end
$var wire 4 #! ALU_op [3:0] $end
$var wire 2 $! Branch_op [1:0] $end
$var wire 1 %! Branch_flag $end
$var wire 1 &! Mem_wr_en $end
$var wire 1 '! RegFile_wr_en $end
$var wire 1 (! MemToReg $end
$var wire 1 )! Jump $end
$var wire 3 *! Mem_op [2:0] $end
$var wire 32 +! Branch_dest [31:0] $end
$var wire 1 ,! Mem_rd_en $end
$var parameter 32 -! REG_DATA_WIDTH [31:0] $end
$var parameter 32 .! REGFILE_ADDR_WIDTH [31:0] $end
$var parameter 32 /! REGFILE_DEPTH [31:0] $end
$var parameter 32 0! ALU_OP_WIDTH [31:0] $end
$scope module RV32I_CONTROL $end
$var wire 32 . IF_Instruction [31:0] $end
$var wire 32 - IF_PC [31:0] $end
$var reg 5 P! Rd_addr [4:0] $end
$var reg 5 Q! Rs1_addr [4:0] $end
$var reg 5 R! Rs2_addr [4:0] $end
$var reg 32 S! Immediate_1 [31:0] $end
$var reg 32 T! Immediate_2 [31:0] $end
$var reg 2 U! ALU_source_sel [1:0] $end
$var reg 4 V! ALU_op [3:0] $end
$var reg 2 W! Branch_op [1:0] $end
$var reg 1 X! Branch_flag $end
$var reg 1 Y! Mem_wr_en $end
$var reg 1 Z! Mem_rd_en $end
$var reg 1 [! RegFile_wr_en $end
$var reg 1 \! MemToReg $end
$var reg 1 ]! Jump $end
$var reg 3 ^! Mem_op [2:0] $end
$var wire 7 _! OPCODE [6:0] $end
$var wire 5 `! RD [4:0] $end
$var wire 4 a! FUNCT3 [3:0] $end
$var wire 7 b! FUNCT7 [6:0] $end
$var wire 32 c! IMM_I [31:0] $end
$var wire 32 d! IMM_S [31:0] $end
$var wire 32 e! IMM_B [31:0] $end
$var wire 32 f! IMM_U [31:0] $end
$var wire 32 g! IMM_J [31:0] $end
$var parameter 32 h! REG_DATA_WIDTH [31:0] $end
$var parameter 32 i! REGFILE_ADDR_WIDTH [31:0] $end
$var parameter 32 j! REGFILE_DEPTH [31:0] $end
$var parameter 32 k! ALU_OP_WIDTH [31:0] $end
$upscope $end
$scope module RV32I_REGFILE $end
$var wire 1 ! Clk $end
$var wire 1 " Reset_n $end
$var wire 5 z Rs1_addr [4:0] $end
$var wire 5 { Rs2_addr [4:0] $end
$var wire 5 Q Rd_addr [4:0] $end
$var wire 32 R Rd_wr_data [31:0] $end
$var wire 1 T Rd_wr_en $end
$var wire 32 ~ Rs1_data [31:0] $end
$var wire 32 !! Rs2_data [31:0] $end
$var parameter 32 l! REG_DATA_WIDTH [31:0] $end
$var parameter 32 m! REGFILE_ADDR_WIDTH [31:0] $end
$var parameter 32 n! REGFILE_DEPTH [31:0] $end
$scope begin Block62_14 $end
$var reg 32 o! i $end
$upscope $end
$scope begin Block69_16 $end
$var reg 32 p! i $end
$upscope $end
$upscope $end
$scope module ID_BranchGen $end
$var wire 2 $! Branch_op [1:0] $end
$var wire 32 - PC [31:0] $end
$var wire 32 ~ RegData [31:0] $end
$var wire 32 } Immediate [31:0] $end
$var reg 32 q! Branch_dest [31:0] $end
$upscope $end
$upscope $end
$scope module EX_inst $end
$var wire 1 ! Clk $end
$var wire 1 " Reset_n $end
$var reg 1 1! EX_Mem_wr_en $end
$var reg 1 2! EX_Mem_rd_en $end
$var reg 3 3! EX_Mem_op [2:0] $end
$var reg 32 4! EX_Rs2_data [31:0] $end
$var reg 1 5! EX_MemToReg $end
$var reg 32 6! EX_ALU_result [31:0] $end
$var reg 32 7! EX_PC_Branch_dest [31:0] $end
$var reg 1 8! EX_PC_Branch $end
$var reg 1 9! EX_RegFile_wr_en $end
$var reg 5 :! EX_Rd_addr [4:0] $end
$var wire 1 ) EX_Flush $end
$var wire 1 4 ID_Mem_wr_en $end
$var wire 1 5 ID_Mem_rd_en $end
$var wire 3 9 ID_Mem_op [2:0] $end
$var wire 1 7 ID_MemToReg $end
$var wire 32 : ID_PC_dest [31:0] $end
$var wire 2 2 ID_Branch_op [1:0] $end
$var wire 1 3 ID_Branch_flag $end
$var wire 1 8 ID_Jump $end
$var wire 2 + ForwardA [1:0] $end
$var wire 2 , ForwardB [1:0] $end
$var wire 32 R WB_Rd_data [31:0] $end
$var wire 2 0 ID_ALU_source_sel [1:0] $end
$var wire 4 1 ID_ALU_op [3:0] $end
$var wire 1 6 ID_RegFile_wr_en $end
$var wire 5 ? ID_Rd_addr [4:0] $end
$var wire 32 / ID_PC [31:0] $end
$var wire 32 = ID_Rs1_data [31:0] $end
$var wire 32 > ID_Rs2_data [31:0] $end
$var wire 32 ; ID_Immediate_1 [31:0] $end
$var wire 32 < ID_Immediate_2 [31:0] $end
$var reg 32 ;! ALU_op1 [31:0] $end
$var reg 32 <! ALU_op2 [31:0] $end
$var wire 32 =! ALU_result [31:0] $end
$var reg 1 >! PC_source_sel $end
$scope module ALU_inst $end
$var wire 4 1 ALU_op [3:0] $end
$var wire 32 r! ALU_op1 [31:0] $end
$var wire 32 s! ALU_op2 [31:0] $end
$var reg 32 t! ALU_result [31:0] $end
$var wire 5 u! shift [4:0] $end
$upscope $end
$upscope $end
$scope module MEM_inst $end
$var wire 1 ! Clk $end
$var wire 1 " Reset_n $end
$var reg 32 ?! mem_addr [31:0] $end
$var reg 32 @! mem_wr_data [31:0] $end
$var reg 1 A! mem_wr_en $end
$var reg 1 B! mem_rst $end
$var wire 32 # mem_rd_data [31:0] $end
$var reg 32 C! MEM_dout [31:0] $end
$var reg 1 D! MEM_MemToReg $end
$var reg 32 E! MEM_ALU_result [31:0] $end
$var reg 1 F! MEM_RegFile_wr_en $end
$var reg 5 G! MEM_Rd_addr [4:0] $end
$var wire 1 B EX_Mem_wr_en $end
$var wire 1 C EX_Mem_rd_en $end
$var wire 3 D EX_Mem_op [2:0] $end
$var wire 1 E EX_MemToReg $end
$var wire 32 F EX_ALU_result [31:0] $end
$var wire 32 G EX_Rs2_data [31:0] $end
$var wire 1 H EX_RegFile_wr_en $end
$var wire 5 I EX_Rd_addr [4:0] $end
$upscope $end
$scope module WB_inst $end
$var wire 5 Q WB_Rd_addr [4:0] $end
$var wire 32 R WB_Rd_data [31:0] $end
$var wire 1 T WB_RegFile_wr_en $end
$var wire 5 P MEM_Rd_addr [4:0] $end
$var wire 32 L MEM_dout [31:0] $end
$var wire 32 N MEM_ALU_result [31:0] $end
$var wire 1 M MEM_MemToReg $end
$var wire 1 O MEM_RegFile_wr_en $end
$upscope $end
$upscope $end
$upscope $end
$enddefinitions $end
#0
$dumpvars
0!
bx !!
bx !"
0"
b0 "!
bx ""
b0 #
b0 #!
bx #"
bx $
b0 $!
b0 $"
b0 %
0%!
b0 %"
x&
0&!
b0 &"
1'
0'!
b0 '"
0(
0(!
b0 ("
0)
0)!
0*
b0 *!
b0 +
bx +!
b0 ,
0,!
b0 -
b100000 -!
b0 .
b101 .!
bx /
b100000 /!
bx 0
b100 0!
bx 1
x1!
bx 2
x2!
x3
bx 3!
x4
bx 4!
x5
x5!
x6
bx 6!
x7
bx 7!
x8
x8!
bx 9
x9!
bx :
bx :!
bx ;
bx ;!
bx <
bx <!
bx =
bx =!
bx >
x>!
bx ?
bx ?!
bx @
b0 @!
bx A
xA!
xB
1B!
xC
b0 C!
bx D
xD!
xE
bx E!
bx F
xF!
bx G
bx G!
xH
b0 H!
bx I
b0 I!
bx J
b100000 J!
xK
b1010 K!
b0 L
b0 L!
xM
b100000 M!
bx N
b100000000000 N!
xO
b1000000000 O!
bx P
b0 P!
bx Q
b0 Q!
bx R
b0 R!
zS
b0 S!
xT
b0 T!
b0 U
b0 U!
b0 V
b0 V!
b100000 W
b0 W!
b101 X
0X!
0Y
0Y!
0Z
0Z!
0[
0[!
b0 \
0\!
b100000 ]
0]!
b101 ^
b0 ^!
0_
b0 _!
b0 `
bz `!
b0 a
b0 a!
b100000 b
b0 b!
b1010 c
b0 c!
b10000000000 d
b0 d!
0e
b0 e!
bx f
b0 f!
bx g
b0 g!
bx h
b100000 h!
bx i
b101 i!
xj
b100000 j!
xk
b100 k!
xl
b100000 l!
xm
b101 m!
xn
b100000 n!
xo
b100000 o!
bx p
b0 p!
bx q
bx q!
bx r
bx r!
bx s
bx s!
bx t
bx t!
bx u
bx u!
bx v
0v!
bx w
0w!
bx x
b0 x!
b0 y
bz y!
b0 z
b0 z!
b0 {
b0 {!
b0 |
bx |!
b0 }
bx }!
bx ~
bx ~!
$end
#10000
1!
b0 !!
b0 $
0&
b0 /
b0 0
b0 1
01!
b0 2
02!
03
b0 3!
04
b0 4!
05
05!
06
b0 6!
07
b0 7!
08
08!
b0 9
09!
b0 :
b0 :!
b0 ;
b0 ;!
b0 <
b0 <!
b0 =
b0 =!
b0 >
b0 ?
b0 ?!
b0 @
b0 @!
b0 A
0A!
0B
1B!
0C
b0 C!
b0 D
0D!
0E
b0 E!
b0 F
0F!
b0 G
b0 G!
0H
b0 H!
b0 I
b0 J
0K
0M
b0 N
0O
b0 P
b0 Q
b0 R
0T
b0 U
b0 V
0Y
0Z
0[
b0 f
b0 g
b0 h
b0 i
0j
0k
0l
0m
0n
0o
b0 p
b100000 p!
b0 q
bx q!
b0 r
b0 r!
b0 s
b0 s!
b0 t
b0 t!
b0 u
b0 u!
b0 v
1v!
b0 w
b0 x
b0 ~
#20000
0!
0v!
#30000
1!
01!
02!
b0 3!
b0 4!
05!
b0 6!
b0 7!
08!
09!
b0 :!
0D!
b0 E!
0F!
b0 G!
b0 H!
b0 f
b0 g
b0 h
b0 i
0j
0k
0l
0m
0n
0o
b0 p
b100000 p!
b0 q
b0 r
b0 s
b0 t
b0 u
b0 v
1v!
b0 w
b0 x
#40000
0!
0v!
#50000
1!
01!
02!
b0 3!
b0 4!
05!
b0 6!
b0 7!
08!
09!
b0 :!
0D!
b0 E!
0F!
b0 G!
b0 H!
b0 f
b0 g
b0 h
b0 i
0j
0k
0l
0m
0n
0o
b0 p
b100000 p!
b0 q
b0 r
b0 s
b0 t
b0 u
b0 v
1v!
b0 w
b0 x
#60000
0!
0v!
#70000
1!
01!
02!
b0 3!
b0 4!
05!
b0 6!
b0 7!
08!
09!
b0 :!
0D!
b0 E!
0F!
b0 G!
b0 H!
b0 f
b0 g
b0 h
b0 i
0j
0k
0l
0m
0n
0o
b0 p
b100000 p!
b0 q
b0 r
b0 s
b0 t
b0 u
b0 v
1v!
b0 w
b0 x
#80000
0!
0v!
#90000
1!
01!
02!
b0 3!
b0 4!
05!
b0 6!
b0 7!
08!
09!
b0 :!
0D!
b0 E!
0F!
b0 G!
b0 H!
b0 f
b0 g
b0 h
b0 i
0j
0k
0l
0m
0n
0o
b0 p
b100000 p!
b0 q
b0 r
b0 s
b0 t
b0 u
b0 v
1v!
b0 w
b0 x
#100000
0!
1"
0'
b0 ?!
0A!
0B!
b100 I!
0v!
1w!
#110000
1!
b100 -
01!
02!
b0 3!
b0 4!
05!
b0 6!
b0 7!
08!
09!
bx :
b0 :!
0D!
b0 E!
0F!
b0 G!
b100 H!
b0 L!
b0 P!
b0 Q!
b0 R!
b0 S!
b0 T!
b0 U!
b0 V!
b0 W!
0X!
0Y!
0Z!
0[!
0\!
0]!
b0 ^!
b0 f
b0 g
b0 h
b0 i
0j
0k
0l
0m
0n
0o
b0 p
bx q
bx q!
b0 r
b0 s
b0 t
b0 u
b0 v
1v!
b0 w
b0 x
#120000
0!
b1000 I!
0v!
#130000
1!
b1000 -
b100 /
01!
02!
b0 3!
b0 4!
05!
b0 6!
bx 7!
08!
09!
b0 :!
0D!
b0 E!
0F!
b0 G!
b1000 H!
bx J
b0 L!
b0 P!
b0 Q!
b0 R!
b0 S!
b0 T!
b0 U!
b0 V!
b0 W!
0X!
0Y!
0Z!
0[!
0\!
0]!
b0 ^!
b100 f
b0 g
b0 h
b0 i
0j
0k
0l
0m
0n
0o
b0 p
bx q
bx q!
b0 r
b0 s
b0 t
b0 u
b0 v
1v!
b0 w
b0 x
#140000
0!
b1100 I!
0v!
#150000
1!
b1100 -
b1000 /
01!
02!
b0 3!
b0 4!
05!
b0 6!
bx 7!
08!
09!
b0 :!
0D!
b0 E!
0F!
b0 G!
b1100 H!
b0 L!
b0 P!
b0 Q!
b0 R!
b0 S!
b0 T!
b0 U!
b0 V!
b0 W!
0X!
0Y!
0Z!
0[!
0\!
0]!
b0 ^!
b1000 f
b0 g
b0 h
b0 i
0j
0k
0l
0m
0n
0o
b0 p
bx q
bx q!
b0 r
b0 s
b0 t
b0 u
b0 v
1v!
b0 w
b0 x
#160000
0!
b10000 I!
0v!
#170000
1!
b10000 -
b1100 /
01!
02!
b0 3!
b0 4!
05!
b0 6!
bx 7!
08!
09!
b0 :!
0D!
b0 E!
0F!
b0 G!
b10000 H!
b0 L!
b0 P!
b0 Q!
b0 R!
b0 S!
b0 T!
b0 U!
b0 V!
b0 W!
0X!
0Y!
0Z!
0[!
0\!
0]!
b0 ^!
b1100 f
b0 g
b0 h
b0 i
0j
0k
0l
0m
0n
0o
b0 p
bx q
bx q!
b0 r
b0 s
b0 t
b0 u
b0 v
1v!
b0 w
b0 x
#180000
0!
b10100 I!
0v!
#190000
1!
b10100 -
b10000 /
01!
02!
b0 3!
b0 4!
05!
b0 6!
bx 7!
08!
09!
b0 :!
0D!
b0 E!
0F!
b0 G!
b10100 H!
b0 L!
b0 P!
b0 Q!
b0 R!
b0 S!
b0 T!
b0 U!
b0 V!
b0 W!
0X!
0Y!
0Z!
0[!
0\!
0]!
b0 ^!
b10000 f
b0 g
b0 h
b0 i
0j
0k
0l
0m
0n
0o
b0 p
bx q
bx q!
b0 r
b0 s
b0 t
b0 u
b0 v
1v!
b0 w
b0 x
#200000
0!
b11000 I!
0v!
#210000
1!
b11000 -
b10100 /
01!
02!
b0 3!
b0 4!
05!
b0 6!
bx 7!
08!
09!
b0 :!
0D!
b0 E!
0F!
b0 G!
b11000 H!
b0 L!
b0 P!
b0 Q!
b0 R!
b0 S!
b0 T!
b0 U!
b0 V!
b0 W!
0X!
0Y!
0Z!
0[!
0\!
0]!
b0 ^!
b10100 f
b0 g
b0 h
b0 i
0j
0k
0l
0m
0n
0o
b0 p
bx q
bx q!
b0 r
b0 s
b0 t
b0 u
b0 v
1v!
b0 w
b0 x
#220000
0!
b11100 I!
0v!
#230000
1!
b11100 -
b11000 /
01!
02!
b0 3!
b0 4!
05!
b0 6!
bx 7!
08!
09!
b0 :!
0D!
b0 E!
0F!
b0 G!
b11100 H!
b0 L!
b0 P!
b0 Q!
b0 R!
b0 S!
b0 T!
b0 U!
b0 V!
b0 W!
0X!
0Y!
0Z!
0[!
0\!
0]!
b0 ^!
b11000 f
b0 g
b0 h
b0 i
0j
0k
0l
0m
0n
0o
b0 p
bx q
bx q!
b0 r
b0 s
b0 t
b0 u
b0 v
1v!
b0 w
b0 x
#240000
0!
b100000 I!
0v!
#250000
1!
b100000 -
b11100 /
01!
02!
b0 3!
b0 4!
05!
b0 6!
bx 7!
08!
09!
b0 :!
0D!
b0 E!
0F!
b0 G!
b100000 H!
b0 L!
b0 P!
b0 Q!
b0 R!
b0 S!
b0 T!
b0 U!
b0 V!
b0 W!
0X!
0Y!
0Z!
0[!
0\!
0]!
b0 ^!
b11100 f
b0 g
b0 h
b0 i
0j
0k
0l
0m
0n
0o
b0 p
bx q
bx q!
b0 r
b0 s
b0 t
b0 u
b0 v
1v!
b0 w
b0 x
#260000
0!
b100100 I!
0v!
#270000
1!
b100100 -
b100000 /
01!
02!
b0 3!
b0 4!
05!
b0 6!
bx 7!
08!
09!
b0 :!
0D!
b0 E!
0F!
b0 G!
b100100 H!
b0 L!
b0 P!
b0 Q!
b0 R!
b0 S!
b0 T!
b0 U!
b0 V!
b0 W!
0X!
0Y!
0Z!
0[!
0\!
0]!
b0 ^!
b100000 f
b0 g
b0 h
b0 i
0j
0k
0l
0m
0n
0o
b0 p
bx q
bx q!
b0 r
b0 s
b0 t
b0 u
b0 v
1v!
b0 w
b0 x
#280000
0!
b101000 I!
0v!
#290000
1!
b101000 -
b100100 /
01!
02!
b0 3!
b0 4!
05!
b0 6!
bx 7!
08!
09!
b0 :!
0D!
b0 E!
0F!
b0 G!
b101000 H!
b0 L!
b0 P!
b0 Q!
b0 R!
b0 S!
b0 T!
b0 U!
b0 V!
b0 W!
0X!
0Y!
0Z!
0[!
0\!
0]!
b0 ^!
b100100 f
b0 g
b0 h
b0 i
0j
0k
0l
0m
0n
0o
b0 p
bx q
bx q!
b0 r
b0 s
b0 t
b0 u
b0 v
1v!
b0 w
b0 x
#300000
0!
b101100 I!
0v!
#310000
1!
b101100 -
b101000 /
01!
02!
b0 3!
b0 4!
05!
b0 6!
bx 7!
08!
09!
b0 :!
0D!
b0 E!
0F!
b0 G!
b101100 H!
b0 L!
b0 P!
b0 Q!
b0 R!
b0 S!
b0 T!
b0 U!
b0 V!
b0 W!
0X!
0Y!
0Z!
0[!
0\!
0]!
b0 ^!
b101000 f
b0 g
b0 h
b0 i
0j
0k
0l
0m
0n
0o
b0 p
bx q
bx q!
b0 r
b0 s
b0 t
b0 u
b0 v
1v!
b0 w
b0 x
#320000
0!
b110000 I!
0v!
#330000
1!
b110000 -
b101100 /
01!
02!
b0 3!
b0 4!
05!
b0 6!
bx 7!
08!
09!
b0 :!
0D!
b0 E!
0F!
b0 G!
b110000 H!
b0 L!
b0 P!
b0 Q!
b0 R!
b0 S!
b0 T!
b0 U!
b0 V!
b0 W!
0X!
0Y!
0Z!
0[!
0\!
0]!
b0 ^!
b101100 f
b0 g
b0 h
b0 i
0j
0k
0l
0m
0n
0o
b0 p
bx q
bx q!
b0 r
b0 s
b0 t
b0 u
b0 v
1v!
b0 w
b0 x
#340000
0!
b110100 I!
0v!
#350000
1!
b110100 -
b110000 /
01!
02!
b0 3!
b0 4!
05!
b0 6!
bx 7!
08!
09!
b0 :!
0D!
b0 E!
0F!
b0 G!
b110100 H!
b0 L!
b0 P!
b0 Q!
b0 R!
b0 S!
b0 T!
b0 U!
b0 V!
b0 W!
0X!
0Y!
0Z!
0[!
0\!
0]!
b0 ^!
b110000 f
b0 g
b0 h
b0 i
0j
0k
0l
0m
0n
0o
b0 p
bx q
bx q!
b0 r
b0 s
b0 t
b0 u
b0 v
1v!
b0 w
b0 x
#360000
0!
b111000 I!
0v!
#370000
1!
b111000 -
b110100 /
01!
02!
b0 3!
b0 4!
05!
b0 6!
bx 7!
08!
09!
b0 :!
0D!
b0 E!
0F!
b0 G!
b111000 H!
b0 L!
b0 P!
b0 Q!
b0 R!
b0 S!
b0 T!
b0 U!
b0 V!
b0 W!
0X!
0Y!
0Z!
0[!
0\!
0]!
b0 ^!
b110100 f
b0 g
b0 h
b0 i
0j
0k
0l
0m
0n
0o
b0 p
bx q
bx q!
b0 r
b0 s
b0 t
b0 u
b0 v
1v!
b0 w
b0 x
#380000
0!
b111100 I!
0v!
#390000
1!
b0 !!
b10 "!
b10 $!
1'!
1)!
b10001000 +!
b111100 -
b100110000000000000001101111 .
b111000 /
01!
02!
b0 3!
b0 4!
05!
b0 6!
bx 7!
08!
09!
b0 :!
0D!
b0 E!
0F!
b0 G!
b111100 H!
b100110000000000000001101111 L!
b0 P!
b0 Q!
b1100 R!
b111100 S!
b1001100 T!
b10 U!
b0 V!
b10 W!
0X!
0Y
0Y!
0Z!
1[!
b1101111 \
0\!
1]!
b0 ^!
b1101111 _!
b100110000000000000001101111 `
b100110000000000000001101111 a
b10 b!
b1001100 c!
b1000000 d!
b1000000 e!
b111000 f
b100110000000000000000000000 f!
b0 g
b1001100 g!
b0 h
b0 i
0j
0k
0l
0m
0n
0o
b0 p
bx q
b10001000 q!
b0 r
b0 s
b0 t
b0 u
b0 v
1v!
b0 w
b0 x
b1100 {
b111100 |
b1001100 }
#400000
0!
b1000000 I!
0v!
#410000
1!
b0 !!
b0 "!
b0 $!
0'!
1(
0)!
bx +!
b1000000 -
b0 .
b111100 /
b10 0
01!
b10 2
02!
b0 3!
b0 4!
05!
16
b0 6!
bx 7!
18
08!
09!
b10001000 :
b0 :!
b111100 ;
b111100 ;!
b1001100 <
b1 <!
b111101 =!
b1100 A
0D!
b0 E!
0F!
b0 G!
b1000000 H!
b110100001000000010111101110011 L!
b0 P!
b0 Q!
b0 R!
b0 S!
b0 T!
b0 U
b0 U!
b0 V
b0 V!
b0 W!
0X!
0Y
0Y!
1Z
0Z!
0[!
b0 \
0\!
0]!
b0 ^!
b0 _!
b0 `
b110100001000000010111101110011 a
b0 b!
b0 c!
b0 d!
b0 e!
b111100 f
b0 f!
b10 g
b0 g!
b0 h
b10 i
0j
0k
0l
1m
0n
1o
b0 p
b10001000 q
bx q!
b111100 r
b111100 r!
b1001100 s
b1 s!
b0 t
b111101 t!
b0 u
b1 u!
b0 v
1v!
b0 w
b1100 x
b0 {
b0 |
b0 }
#420000
0!
b10001000 I!
0v!
#430000
1!
b1 "!
b111101 $
1'!
0(
b10001000 -
b10010011 .
b0 /
b0 0
01!
b0 2
02!
b0 3!
b0 4!
05!
06
b111101 6!
b10001000 7!
08
08!
19!
b0 :
b0 :!
b0 ;
b0 ;!
b0 <
b0 <!
b0 =!
b111101 ?!
b0 A
0A!
0B!
0D!
b0 E!
b111101 F
0F!
b0 G!
1H
b10001000 H!
b10001000 J
b10010011 L!
b1 P!
b0 Q!
b0 R!
b0 S!
b0 T!
b0 U
b1 U!
b0 V
b0 V!
b0 W!
0X!
0Y
0Y!
0Z
0Z!
1[!
b10011 \
0\!
0]!
b0 ^!
b10011 _!
b10010011 `
b10010011 a
b1 d!
b100000000000 e!
b0 f
b0 g
b0 h
b0 i
0j
0k
0l
0m
0n
0o
b0 p
b0 q
bx q!
b0 r
b0 r!
b0 s
b0 s!
b0 t
b0 t!
b0 u
b0 u!
b0 v
1v!
b0 w
b0 x
b1 y
#440000
0!
b10001100 I!
0v!
